21 500 485 470 455 440 425 410 395 380 365 350 335 320 305 290 275 260 245 230 215 200 
146 100.2 98.2 98.1 98.6 99.5 100.6 101.9 103.3 104.9 106.5 108.3 110.1 112 114 116 118.1 120.2 122.3 124.5 126.7 129 131.2 133.5 135.8 138.1 140.4 142.8 145.2 147.6 150 152.4 154.8 157.2 159.6 162 164.4 166.9 169.3 171.7 174.2 176.6 179.1 181.5 184 186.4 188.9 191.3 193.8 196.2 198.7 201.2 203.6 206.1 208.6 211 213.5 216 218.5 220.9 223.4 225.8 228.3 230.8 233.3 235.7 238.2 240.7 243.1 245.6 248.1 250.6 253 255.5 258 260.5 263 265.4 267.9 270.4 272.9 275.3 277.8 280.3 282.8 285.2 287.7 290.2 292.7 295.1 297.6 300.1 302.6 305 307.5 310 312.5 315 317.5 320 322.5 325 327.4 329.9 332.4 334.9 337.3 339.8 342.3 344.8 347.3 349.7 352.2 354.7 357.2 359.7 362.2 364.7 367.1 369.6 372.1 374.6 377.1 379.5 382 384.5 387 389.5 392 394.5 397 399.4 401.9 404.4 406.9 409.4 411.9 414.4 416.9 419.4 421.8 424.3 426.8 429.3 431.8 434.3 436.8 
146 46.7 46.3 46.3 46.5 46.7 47 47.2 47.6 47.9 48.2 48.5 48.7 49.1 49.3 49.5 49.8 50 50.3 50.5 50.7 50.9 51.1 51.3 51.5 51.7 51.9 52 52.2 52.3 52.4 52.5 52.7 52.8 52.9 53.1 53.2 53.3 53.4 53.6 53.6 53.8 53.9 54 54 54.2 54.3 54.4 54.5 54.6 54.7 54.8 54.9 55 55 55.2 55.2 55.3 55.3 55.5 55.5 55.7 55.7 55.8 55.9 56 56.1 56.1 56.2 56.3 56.3 56.4 56.5 56.6 56.7 56.7 56.7 56.9 57 57 57 57.2 57.2 57.3 57.3 57.5 57.5 57.6 57.6 57.8 57.8 57.9 57.9 58 58.1 58.1 58.2 58.2 58.2 58.3 58.3 58.4 58.5 58.6 58.6 58.6 58.8 58.8 58.9 58.9 58.9 59.1 59.1 59.1 59.2 59.2 59.3 59.3 59.4 59.4 59.5 59.5 59.6 59.7 59.7 59.7 59.8 59.8 59.9 59.9 59.9 60 60.1 60.1 60.1 60.2 60.2 60.3 60.3 60.3 60.4 60.5 60.5 60.5 60.6 60.6 60.6 
144 98.7 98 98.2 98.8 99.8 100.9 102.2 103.6 105.2 106.7 108.4 110.2 112.1 114 115.9 117.9 120 122.1 124.2 126.3 128.5 130.7 132.9 135.1 137.4 139.7 141.9 144.2 146.5 148.9 151.2 153.5 155.9 158.2 160.5 162.8 165.2 167.6 169.9 172.3 174.7 177 179.4 181.7 184.2 186.5 188.9 191.3 193.7 196.1 198.4 200.8 203.3 205.6 208 210.4 212.8 215.2 217.6 220 222.4 224.8 227.2 229.5 232 234.4 236.7 239.1 241.6 244 246.3 248.7 251.2 253.5 255.9 258.3 260.8 263.2 265.5 267.9 270.4 272.8 275.1 277.5 280 282.4 284.8 287.1 289.6 292 294.4 296.8 299.2 301.6 304 306.3 308.8 311.2 313.6 316 318.5 320.9 323.3 325.7 328.1 330.5 332.9 335.3 337.7 340.1 342.5 344.9 347.4 349.8 352.1 354.5 357 359.4 361.8 364.2 366.7 369 371.4 373.8 376.3 378.7 381 383.4 385.9 388.3 390.7 393.1 395.6 398 400.4 402.7 405.2 407.6 410 412.4 414.9 417.3 419.7 422.1 
144 46.3 46.2 46.3 46.5 46.6 47 47.2 47.5 47.8 48.2 48.4 48.7 49 49.2 49.5 49.7 50 50.2 50.4 50.6 50.9 51 51.2 51.4 51.5 51.7 51.9 52 52.2 52.3 52.4 52.5 52.7 52.8 52.9 53 53.2 53.3 53.4 53.5 53.6 53.7 53.8 54 54 54.2 54.2 54.3 54.4 54.5 54.6 54.7 54.8 54.9 55 55 55.2 55.2 55.3 55.3 55.5 55.5 55.6 55.7 55.8 55.9 56 56 56.1 56.1 56.3 56.3 56.4 56.5 56.6 56.6 56.7 56.7 56.9 56.9 57 57 57.2 57.2 57.3 57.3 57.3 57.5 57.5 57.6 57.6 57.7 57.8 57.9 57.9 58 58.1 58.1 58.1 58.2 58.2 58.3 58.3 58.4 58.5 58.5 58.6 58.6 58.7 58.8 58.8 58.9 58.9 58.9 59.1 59.1 59.2 59.2 59.2 59.3 59.3 59.4 59.4 59.5 59.5 59.6 59.7 59.7 59.7 59.8 59.8 59.8 59.9 59.9 59.9 60.1 60.1 60.1 60.2 60.2 60.2 60.3 60.3 60.3 
143 101.3 98.4 98 98.4 99 100.1 101.2 102.5 103.8 105.3 106.9 108.5 110.2 112.1 113.9 115.8 117.7 119.7 121.7 123.8 125.8 128 130 132.2 134.3 136.6 138.7 140.9 143.1 145.4 147.5 149.8 152.1 154.4 156.6 158.9 161.1 163.4 165.6 168 170.2 172.6 174.8 177.2 179.4 181.8 184 186.4 188.6 191 193.3 195.6 197.9 200.2 202.5 204.9 207.1 209.5 211.8 214.1 216.4 218.8 221.1 223.4 225.7 228.1 230.3 232.7 235 237.3 239.6 242 244.3 246.6 248.9 251.3 253.6 255.9 258.2 260.6 262.9 265.3 267.5 269.9 272.2 274.6 276.8 279.2 281.5 283.9 286.2 288.5 290.8 293.2 295.5 297.9 300.1 302.5 304.8 307.2 309.4 311.8 314.1 316.5 318.8 321.2 323.5 325.9 328.2 330.5 332.8 335.2 337.5 339.8 342.1 344.5 346.8 349.2 351.5 353.8 356.1 358.5 360.8 363.2 365.5 367.9 370.1 372.5 374.8 377.2 379.5 381.9 384.1 386.5 388.8 391.2 393.5 395.9 398.2 400.6 402.9 405.2 407.5 
143 46.7 46.1 46.1 46.2 46.4 46.6 46.9 47.1 47.5 47.8 48 48.4 48.6 48.9 49.1 49.4 49.6 49.9 50.1 50.3 50.5 50.6 50.9 51 51.2 51.3 51.5 51.7 51.8 52 52.2 52.3 52.4 52.5 52.7 52.7 52.9 53 53.2 53.2 53.4 53.4 53.6 53.6 53.8 53.8 54 54 54.2 54.2 54.3 54.4 54.5 54.6 54.7 54.7 54.9 55 55 55.1 55.2 55.3 55.3 55.5 55.5 55.6 55.7 55.8 55.8 55.9 56 56.1 56.1 56.2 56.3 56.3 56.4 56.5 56.6 56.6 56.7 56.7 56.9 56.9 57 57 57.1 57.2 57.2 57.3 57.3 57.5 57.5 57.6 57.6 57.7 57.8 57.8 57.9 57.9 58.1 58.1 58.1 58.2 58.2 58.2 58.3 58.3 58.4 58.5 58.6 58.6 58.6 58.7 58.8 58.8 58.9 58.9 58.9 59.1 59.1 59.1 59.2 59.2 59.3 59.3 59.4 59.4 59.5 59.5 59.5 59.6 59.7 59.7 59.7 59.8 59.8 59.9 59.9 59.9 59.9 60.1 60.1 
141 99.6 98.2 98 98.4 99.1 100.1 101.2 102.4 103.8 105.2 106.7 108.3 110 111.7 113.4 115.3 117.1 119.1 120.9 122.9 125 127 129 131 133.2 135.3 137.3 139.5 141.6 143.8 145.9 148 150.2 152.5 154.6 156.8 159 161.2 163.3 165.6 167.8 170.1 172.2 174.5 176.7 179 181.1 183.4 185.6 187.9 190 192.3 194.6 196.8 199 201.2 203.5 205.8 208 210.2 212.5 214.8 216.9 219.2 221.5 223.8 225.9 228.2 230.5 232.7 234.9 237.2 239.4 241.7 243.9 246.2 248.4 250.7 252.9 255.2 257.5 259.7 261.9 264.2 266.5 268.7 270.9 273.2 275.5 277.8 279.9 282.2 284.5 286.8 289 291.2 293.5 295.8 298 300.2 302.5 304.8 307 309.3 311.5 313.8 316 318.3 320.6 322.9 325.1 327.4 329.7 331.9 334.1 336.4 338.7 341 343.1 345.4 347.7 350 352.2 354.5 356.7 359 361.2 363.5 365.8 368.1 370.3 372.5 374.8 377.1 379.3 381.6 383.9 386.1 388.3 390.6 392.9 
141 46.3 45.9 46 46.2 46.4 46.6 46.8 47.1 47.4 47.7 47.9 48.2 48.5 48.7 49 49.2 49.5 49.7 49.9 50.2 50.2 50.5 50.7 50.9 51 51.2 51.4 51.5 51.7 51.8 51.9 52.1 52.2 52.3 52.4 52.6 52.7 52.8 53 53 53.1 53.2 53.3 53.4 53.5 53.6 53.8 53.8 54 54 54.1 54.2 54.3 54.4 54.4 54.6 54.7 54.7 54.8 54.9 55 55 55.2 55.2 55.3 55.3 55.5 55.5 55.6 55.7 55.8 55.8 55.9 56 56.1 56.1 56.2 56.3 56.3 56.4 56.4 56.6 56.6 56.7 56.7 56.8 56.9 57 57 57 57.2 57.2 57.3 57.3 57.3 57.5 57.5 57.6 57.6 57.7 57.8 57.8 57.9 57.9 58.1 58.1 58.1 58.2 58.2 58.2 58.3 58.3 58.4 58.5 58.5 58.6 58.6 58.6 58.8 58.8 58.9 58.9 58.9 59 59.1 59.1 59.1 59.2 59.2 59.3 59.3 59.4 59.4 59.5 59.5 59.5 59.6 59.7 59.7 59.7 59.8 
139 98.9 98 97.9 98.4 99.1 100 101.1 102.3 103.5 104.9 106.3 107.9 109.5 111.1 112.8 114.6 116.3 118.2 120 122 123.8 125.8 127.7 129.7 131.7 133.7 135.8 137.8 139.9 141.9 144 146 148.1 150.3 152.4 154.5 156.7 158.8 160.9 163 165.1 167.3 169.4 171.6 173.7 175.9 178 180.2 182.3 184.5 186.6 188.8 190.9 193.1 195.3 197.4 199.6 201.8 203.9 206.1 208.3 210.4 212.6 214.8 217 219.1 221.3 223.5 225.7 227.8 230 232.2 234.3 236.5 238.7 240.9 243 245.2 247.4 249.6 251.7 253.9 256.1 258.3 260.4 262.6 264.8 267 269.2 271.3 273.5 275.7 277.9 280.1 282.2 284.4 286.6 288.8 291 293.1 295.3 297.5 299.7 301.8 304 306.2 308.4 310.6 312.7 314.9 317.1 319.3 321.5 323.7 325.9 328.1 330.3 332.5 334.6 336.8 339 341.2 343.4 345.5 347.7 349.9 352.1 354.3 356.5 358.6 360.8 363 365.2 367.4 369.6 371.8 373.9 376.1 378.3 
139 46 45.9 45.9 46 46.2 46.4 46.7 47 47.2 47.5 47.8 48.1 48.3 48.6 48.8 49 49.3 49.5 49.7 49.9 50.1 50.3 50.5 50.7 50.9 51 51.1 51.3 51.4 51.6 51.7 51.9 52.1 52.1 52.3 52.4 52.4 52.6 52.7 52.8 53 53 53.1 53.2 53.3 53.4 53.5 53.6 53.7 53.8 53.9 54 54.1 54.2 54.2 54.4 54.4 54.5 54.6 54.7 54.7 54.9 54.9 55 55 55.2 55.2 55.3 55.3 55.4 55.5 55.6 55.7 55.8 55.8 55.8 56 56 56.1 56.1 56.3 56.3 56.4 56.4 56.5 56.6 56.6 56.7 56.7 56.8 56.9 57 57 57 57.2 57.2 57.3 57.3 57.3 57.5 57.5 57.6 57.6 57.7 57.8 57.8 57.9 57.9 58 58.1 58.1 58.1 58.2 58.2 58.3 58.3 58.3 58.4 58.5 58.6 58.6 58.6 58.6 58.8 58.8 58.9 58.9 58.9 59 59.1 59.1 59.1 59.2 59.2 59.3 59.3 59.4 59.4 59.4 
137 98.7 97.8 97.8 98.3 98.8 99.7 100.7 101.9 103 104.4 105.8 107.2 108.7 110.3 111.9 113.5 115.2 117 118.8 120.5 122.4 124.3 126.2 128 129.9 131.9 133.9 135.8 137.7 139.8 141.8 143.8 145.8 147.8 149.8 151.8 153.9 156 158.1 160.1 162.1 164.2 166.2 168.3 170.3 172.5 174.5 176.6 178.6 180.8 182.8 184.9 186.9 189.1 191.2 193.2 195.3 197.5 199.5 201.6 203.7 205.8 207.9 210 212 214.2 216.3 218.4 220.4 222.6 224.7 226.8 228.8 231 233.1 235.1 237.2 239.4 241.5 243.5 245.6 247.8 249.9 252 254 256.2 258.3 260.4 262.4 264.6 266.7 268.8 270.9 273.1 275.1 277.2 279.3 281.5 283.5 285.6 287.7 289.9 292 294 296.1 298.3 300.4 302.5 304.5 306.7 308.8 310.9 312.9 315.1 317.2 319.3 321.4 323.6 325.7 327.8 329.9 332.1 334.2 336.3 338.3 340.5 342.6 344.7 346.7 348.9 351 353.1 355.2 357.4 359.5 361.5 363.6 
137 45.9 45.7 45.7 45.8 46.1 46.3 46.6 46.8 47.1 47.3 47.6 47.8 48.1 48.4 48.6 48.9 49.1 49.3 49.5 49.7 49.9 50.1 50.2 50.5 50.6 50.8 50.9 51.1 51.3 51.4 51.5 51.6 51.7 51.9 52.1 52.2 52.2 52.4 52.4 52.5 52.7 52.8 52.9 53 53.1 53.2 53.3 53.4 53.5 53.5 53.7 53.7 53.9 53.9 54 54.1 54.2 54.2 54.4 54.4 54.5 54.6 54.7 54.7 54.8 54.9 55 55 55.2 55.2 55.3 55.3 55.4 55.5 55.5 55.6 55.7 55.8 55.8 55.9 56 56 56.1 56.1 56.3 56.3 56.4 56.4 56.5 56.6 56.6 56.7 56.7 56.7 56.9 56.9 57 57 57.2 57.2 57.2 57.3 57.3 57.4 57.5 57.5 57.6 57.6 57.7 57.8 57.8 57.9 58 58 58.1 58.1 58.1 58.2 58.2 58.3 58.3 58.3 58.4 58.4 58.5 58.6 58.6 58.6 58.8 58.8 58.8 58.9 58.9 58.9 59 59.1 59.1 
135 98.8 97.8 97.7 98.1 98.7 99.4 100.4 101.5 102.6 103.8 105.1 106.5 107.9 109.4 110.9 112.5 114.1 115.8 117.4 119.2 120.9 122.7 124.4 126.3 128.1 130 131.8 133.7 135.6 137.5 139.4 141.4 143.2 145.2 147.1 149.1 151 153 155 157 159 161 162.9 164.9 166.8 168.9 170.8 172.9 174.9 176.9 178.9 180.9 182.9 184.9 186.9 188.9 190.9 193 194.9 197 199 201 203 205.1 207 209.1 211.1 213.1 215.1 217.2 219.2 221.3 223.2 225.3 227.3 229.4 231.3 233.4 235.4 237.5 239.4 241.5 243.5 245.6 247.5 249.6 251.6 253.7 255.6 257.7 259.7 261.8 263.8 265.8 267.8 269.9 271.9 274 275.9 278 280 282.1 284.1 286.1 288.1 290.2 292.2 294.3 296.3 298.3 300.3 302.4 304.4 306.4 308.4 310.5 312.5 314.6 316.5 318.6 320.6 322.7 324.7 326.8 328.8 330.9 332.9 335 337 339.1 341 343.1 345.1 347.2 349.1 
135 45.7 45.5 45.6 45.7 45.9 46.1 46.3 46.6 46.8 47.1 47.3 47.6 47.8 48.1 48.3 48.6 48.7 49 49.2 49.4 49.5 49.8 50 50.1 50.3 50.4 50.6 50.8 50.9 51.1 51.2 51.3 51.5 51.6 51.7 51.9 52 52.1 52.2 52.3 52.4 52.4 52.6 52.7 52.9 52.9 53.1 53.1 53.1 53.3 53.3 53.5 53.5 53.7 53.7 53.9 53.9 53.9 54.1 54.2 54.2 54.3 54.4 54.4 54.6 54.6 54.7 54.8 54.9 54.9 55 55 55.2 55.2 55.3 55.3 55.4 55.5 55.5 55.5 55.7 55.8 55.8 55.8 56 56 56.1 56.1 56.2 56.3 56.3 56.4 56.4 56.5 56.6 56.7 56.7 56.7 56.8 56.9 57 57 57 57.2 57.2 57.2 57.3 57.3 57.3 57.5 57.5 57.6 57.6 57.7 57.8 57.8 57.8 57.9 58 58.1 58.1 58.1 58.2 58.2 58.2 58.3 58.3 58.3 58.4 58.4 58.5 58.6 58.6 58.6 58.8 
133 99.2 97.8 97.6 97.9 98.4 99.1 99.9 100.9 101.9 103.1 104.3 105.5 106.9 108.3 109.6 111.2 112.7 114.3 115.8 117.5 119.1 120.8 122.5 124.2 126 127.8 129.5 131.3 133.1 135 136.7 138.6 140.5 142.3 144.1 146 147.9 149.8 151.6 153.5 155.5 157.5 159.3 161.2 163.1 165.1 166.9 168.8 170.8 172.7 174.6 176.6 178.5 180.5 182.3 184.3 186.2 188.2 190.1 192 194 196 197.8 199.8 201.8 203.7 205.6 207.6 209.5 211.5 213.4 215.3 217.3 219.3 221.2 223.2 225.1 227.1 229 231 232.9 234.9 236.8 238.8 240.7 242.7 244.6 246.6 248.5 250.5 252.4 254.4 256.4 258.3 260.2 262.2 264.2 266.2 268 270 272 274 275.9 277.8 279.8 281.8 283.7 285.7 287.7 289.6 291.5 293.5 295.5 297.5 299.3 301.3 303.3 305.3 307.2 309.1 311.1 313.1 315 317 318.9 320.9 322.8 324.8 326.8 328.8 330.7 332.7 334.7 
133 45.6 45.4 45.4 45.5 45.6 45.8 46.1 46.3 46.6 46.8 47 47.3 47.5 47.8 48 48.2 48.4 48.7 48.9 49 49.3 49.5 49.6 49.9 50 50.2 50.3 50.5 50.6 50.8 50.9 51 51.1 51.3 51.4 51.6 51.7 51.8 52 52 52.1 52.2 52.3 52.4 52.5 52.6 52.7 52.8 52.9 53 53.1 53.1 53.3 53.3 53.5 53.5 53.6 53.7 53.7 53.9 53.9 53.9 54.1 54.2 54.2 54.3 54.4 54.4 54.6 54.6 54.7 54.8 54.8 54.9 55 55 55.1 55.2 55.2 55.3 55.4 55.4 55.5 55.5 55.7 55.7 55.8 55.8 55.9 56 56 56.1 56.1 56.2 56.3 56.3 56.4 56.4 56.5 56.6 56.6 56.7 56.7 56.8 56.9 56.9 57 57 57 57.2 57.2 57.3 57.3 57.3 57.4 57.5 57.5 57.6 57.6 57.7 57.8 57.8 57.8 57.9 58 58.1 58.1 58.1 58.1 58.2 58.2 58.3 58.3 
131 100.4 98.1 97.6 97.7 98.1 98.6 99.4 100.2 101.2 102.2 103.3 104.5 105.7 107 108.3 109.7 111.1 112.6 114.1 115.6 117.2 118.8 120.4 122 123.7 125.3 127 128.8 130.4 132.2 133.9 135.7 137.4 139.2 141 142.8 144.6 146.4 148.2 150 151.8 153.5 155.4 157.3 159.1 161 162.8 164.7 166.5 168.3 170.2 172 173.9 175.7 177.6 179.4 181.3 183.2 185 186.9 188.7 190.6 192.5 194.3 196.2 198.1 199.9 201.8 203.7 205.6 207.4 209.3 211.2 213 214.9 216.8 218.6 220.5 222.4 224.3 226.2 228 229.9 231.8 233.7 235.5 237.4 239.3 241.2 243.1 244.9 246.8 248.7 250.6 252.4 254.3 256.2 258.1 260 261.8 263.7 265.6 267.5 269.4 271.2 273.1 275 276.9 278.8 280.6 282.5 284.4 286.3 288.2 290.1 292 293.8 295.7 297.6 299.5 301.4 303.2 305.1 307 308.9 310.8 312.6 314.5 316.4 318.3 320.2 
131 45.8 45.3 45.3 45.3 45.4 45.6 45.7 46 46.2 46.4 46.7 46.9 47.2 47.4 47.6 47.8 48.1 48.3 48.5 48.7 48.9 49.1 49.3 49.5 49.6 49.8 50 50 50.3 50.4 50.5 50.7 50.9 50.9 51.1 51.2 51.3 51.4 51.5 51.6 51.8 51.9 52 52.1 52.2 52.3 52.4 52.3 52.5 52.6 52.7 52.8 52.9 53 53.1 53.2 53.3 53.3 53.4 53.5 53.6 53.7 53.7 53.8 53.9 53.9 54.1 54.1 54.2 54.2 54.4 54.4 54.4 54.6 54.6 54.7 54.8 54.8 54.9 54.9 55 55.1 55.2 55.2 55.3 55.4 55.4 55.5 55.5 55.5 55.7 55.7 55.8 55.8 55.9 56 56 56.1 56.1 56.2 56.3 56.3 56.4 56.4 56.5 56.6 56.6 56.7 56.7 56.8 56.9 56.9 57 57 57 57.1 57.2 57.3 57.3 57.3 57.3 57.5 57.5 57.5 57.6 57.6 57.7 57.8 57.8 57.8 57.9 
128 98.7 97.8 97.6 97.7 98.1 98.7 99.4 100.3 101.2 102.2 103.2 104.4 105.6 106.8 108 109.3 110.7 112.1 113.5 115 116.5 118 119.5 121 122.7 124.3 125.8 127.4 129.2 130.8 132.4 134.1 135.8 137.5 139.2 140.9 142.7 144.4 146 147.8 149.5 151.3 153 154.6 156.5 158.3 160 161.8 163.6 165.4 167.1 168.9 170.7 172.4 174.2 176 177.8 179.6 181.3 183.1 185 186.7 188.5 190.3 192.1 193.9 195.7 197.4 199.3 201.1 202.8 204.6 206.5 208.3 210 211.8 213.7 215.4 217.2 219 220.9 222.6 224.4 226.2 228.1 229.9 231.6 233.4 235.3 237.1 238.8 240.6 242.5 244.3 246.1 247.8 249.7 251.5 253.3 255 256.9 258.7 260.5 262.3 264.1 265.9 267.7 269.5 271.4 273.2 274.9 276.7 278.6 280.4 282.2 283.9 285.8 287.6 289.4 291.2 293.1 294.8 296.6 298.4 300.3 302.1 303.9 305.6 
128 45.4 45.1 45.1 45.2 45.3 45.5 45.6 45.8 46.1 46.3 46.5 46.7 47 47.2 47.5 47.7 47.9 48.1 48.3 48.4 48.7 48.9 49 49.2 49.4 49.5 49.7 49.9 50 50.1 50.3 50.4 50.6 50.7 50.8 50.9 51 51.1 51.3 51.3 51.5 51.6 51.7 51.9 52 52 52.1 52.2 52.3 52.3 52.5 52.5 52.6 52.8 52.8 52.9 53 53 53.2 53.2 53.3 53.4 53.5 53.5 53.6 53.7 53.7 53.8 53.9 53.9 54.1 54.1 54.2 54.2 54.3 54.4 54.4 54.6 54.6 54.7 54.7 54.8 54.9 54.9 55 55 55.1 55.2 55.3 55.3 55.4 55.4 55.5 55.5 55.5 55.7 55.7 55.8 55.8 55.9 56 56 56.1 56.1 56.2 56.3 56.3 56.4 56.4 56.4 56.5 56.6 56.6 56.7 56.7 56.8 56.9 56.9 57 57 57 57.2 57.2 57.2 57.3 57.3 57.3 57.4 
126 102.5 98.4 97.5 97.4 97.6 98 98.6 99.3 100.1 101 102 102.9 104.1 105.1 106.3 107.5 108.7 110 111.3 112.6 114.1 115.4 116.9 118.3 119.8 121.3 122.8 124.3 125.9 127.4 129.1 130.6 132.2 133.8 135.4 137 138.7 140.3 142 143.6 145.3 146.9 148.6 150.2 151.9 153.5 155.2 156.8 158.6 160.3 162 163.7 165.4 167.1 168.9 170.5 172.2 173.9 175.6 177.3 179.1 180.7 182.5 184.1 185.9 187.6 189.3 191 192.8 194.4 196.2 197.9 199.6 201.3 203.1 204.7 206.5 208.2 210 211.7 213.4 215.1 216.9 218.5 220.3 222 223.8 225.4 227.2 228.9 230.7 232.4 234.1 235.8 237.6 239.3 241 242.7 244.5 246.2 248 249.7 251.4 253.1 254.9 256.6 258.3 260 261.8 263.5 265.3 266.9 268.7 270.4 272.2 273.9 275.7 277.3 279.1 280.8 282.6 284.3 286 287.7 289.5 291.2 
126 45.8 45 44.9 45 45 45.1 45.3 45.4 45.6 45.8 46 46.3 46.5 46.7 47 47.1 47.4 47.6 47.8 48 48.2 48.4 48.6 48.7 48.9 49.1 49.3 49.4 49.6 49.7 49.8 50 50.1 50.2 50.4 50.5 50.6 50.7 50.8 50.9 51 51.2 51.3 51.4 51.5 51.6 51.7 51.9 51.9 52 52.1 52.1 52.2 52.3 52.3 52.5 52.6 52.6 52.7 52.8 52.8 53 53 53.2 53.2 53.2 53.4 53.4 53.4 53.6 53.6 53.7 53.8 53.9 53.9 54 54.1 54.1 54.1 54.2 54.3 54.4 54.4 54.6 54.6 54.6 54.7 54.8 54.8 54.9 55 55 55.1 55.2 55.2 55.2 55.4 55.4 55.4 55.5 55.5 55.5 55.7 55.7 55.8 55.8 55.9 56 56 56.1 56.1 56.2 56.3 56.3 56.3 56.4 56.4 56.5 56.6 56.6 56.7 56.7 56.8 56.8 56.9 56.9 
123 102.2 98.4 97.5 97.4 97.7 97.9 98.5 99.2 99.8 100.6 101.6 102.5 103.4 104.5 105.6 106.7 107.8 109.1 110.3 111.6 112.8 114.2 115.5 116.9 118.2 119.7 121.1 122.6 123.9 125.5 127 128.5 129.9 131.5 133 134.6 136.1 137.6 139.2 140.8 142.3 143.9 145.5 147.1 148.7 150.2 151.9 153.5 155.1 156.6 158.3 159.9 161.5 163.1 164.8 166.5 168 169.7 171.4 173 174.5 176.2 177.8 179.5 181.1 182.7 184.4 186.1 187.6 189.3 191 192.6 194.2 195.9 197.5 199.2 200.8 202.4 204.1 205.8 207.3 209 210.7 212.4 214 215.6 217.3 219 220.6 222.2 223.9 225.6 227.2 228.9 230.5 232.2 233.8 235.5 237.2 238.8 240.4 242.1 243.8 245.4 247 248.7 250.4 252.1 253.6 255.3 257 258.7 260.3 261.9 263.6 265.3 266.9 268.6 270.2 271.9 273.5 275.2 276.9 
123 45.5 44.9 44.7 44.7 44.8 44.9 45 45.1 45.4 45.6 45.7 46 46.2 46.4 46.6 46.9 47.1 47.2 47.5 47.6 47.8 48 48.2 48.4 48.6 48.7 48.9 49 49.2 49.3 49.5 49.6 49.8 49.8 50 50.1 50.2 50.4 50.5 50.6 50.7 50.8 50.9 51 51.1 51.3 51.3 51.4 51.5 51.7 51.7 51.9 51.9 52 52.1 52.1 52.2 52.2 52.3 52.4 52.5 52.6 52.7 52.8 52.8 52.9 53 53 53.1 53.2 53.2 53.4 53.4 53.4 53.6 53.6 53.6 53.8 53.8 53.9 54 54 54.1 54.1 54.2 54.3 54.4 54.4 54.4 54.6 54.6 54.6 54.7 54.7 54.8 54.9 55 55 55 55.2 55.2 55.2 55.2 55.4 55.4 55.5 55.5 55.5 55.6 55.7 55.7 55.8 55.8 55.9 56 56 56.1 56.1 56.2 56.2 56.3 56.3 56.4 
120 106.9 98.7 97.7 97.4 97.5 97.8 98.2 98.8 99.4 100.2 100.9 101.8 102.7 103.7 104.7 105.7 106.8 107.9 109 110.2 111.3 112.6 113.9 115.1 116.4 117.7 119.1 120.4 121.8 123.2 124.6 126 127.4 128.8 130.3 131.7 133.2 134.7 136.1 137.6 139.1 140.6 142.1 143.6 145.1 146.6 148.2 149.7 151.2 152.7 154.3 155.8 157.3 158.8 160.4 161.9 163.5 165 166.6 168.2 169.8 171.3 172.9 174.4 176 177.5 179.1 180.6 182.2 183.8 185.3 186.9 188.5 190 191.6 193.2 194.7 196.3 197.9 199.5 201 202.6 204.2 205.7 207.3 208.9 210.5 212 213.6 215.2 216.8 218.4 219.9 221.5 223.1 224.7 226.2 227.8 229.4 231 232.6 234.1 235.7 237.3 238.9 240.5 242 243.6 245.2 246.8 248.4 249.9 251.5 253.1 254.7 256.3 257.8 259.4 261 262.6 
120 46 44.8 44.6 44.5 44.6 44.6 44.8 44.9 45.1 45.2 45.5 45.6 45.8 46 46.2 46.4 46.6 46.8 47 47.2 47.5 47.6 47.7 48 48.1 48.3 48.4 48.6 48.8 48.9 49 49.2 49.3 49.5 49.6 49.7 49.8 49.9 50.1 50.2 50.3 50.4 50.5 50.6 50.7 50.8 50.9 51 51.1 51.2 51.2 51.4 51.5 51.6 51.6 51.8 51.8 51.9 52 52.1 52.1 52.2 52.2 52.4 52.4 52.5 52.6 52.7 52.7 52.8 52.9 52.9 53 53.1 53.1 53.2 53.3 53.3 53.4 53.4 53.5 53.6 53.6 53.8 53.8 53.9 53.9 54 54.1 54.1 54.1 54.2 54.3 54.4 54.4 54.4 54.6 54.6 54.6 54.7 54.7 54.8 54.9 54.9 55 55 55.1 55.2 55.2 55.2 55.2 55.4 55.4 55.5 55.5 55.5 55.7 55.7 55.7 55.8 
116 100 98 97.5 97.5 97.6 97.8 98.2 98.8 99.4 100.1 100.9 101.7 102.6 103.4 104.4 105.3 106.4 107.4 108.4 109.5 110.7 111.8 113 114.2 115.5 116.7 117.9 119.2 120.5 121.8 123.1 124.4 125.8 127.1 128.5 129.8 131.3 132.7 134 135.4 136.9 138.3 139.7 141 142.6 144 145.4 146.8 148.3 149.8 151.2 152.6 154.1 155.6 157 158.5 160 161.5 162.9 164.4 165.8 167.3 168.8 170.3 171.9 173.3 174.8 176.3 177.8 179.3 180.7 182.2 183.8 185.2 186.7 188.1 189.7 191.2 192.7 194.1 195.7 197.2 198.6 200.1 201.7 203.2 204.6 206.1 207.7 209.2 210.6 212.1 213.7 215.2 216.6 218.1 219.7 221.2 222.6 224.1 225.7 227.2 228.7 230.1 231.7 233.2 234.7 236.2 237.7 239.2 240.7 242.2 243.8 245.3 246.7 248.2 
116 44.7 44.4 44.3 44.3 44.3 44.4 44.6 44.7 44.8 45 45.2 45.3 45.5 45.8 45.9 46.1 46.3 46.5 46.7 46.9 47.1 47.3 47.4 47.6 47.7 47.9 48.1 48.2 48.4 48.6 48.7 48.8 49 49.1 49.2 49.4 49.4 49.5 49.7 49.8 49.9 50 50.1 50.3 50.3 50.4 50.5 50.6 50.8 50.8 50.9 51 51.1 51.2 51.3 51.3 51.4 51.4 51.6 51.6 51.8 51.9 51.9 52 52 52.1 52.1 52.2 52.3 52.3 52.5 52.5 52.6 52.7 52.7 52.8 52.9 52.9 52.9 53.1 53.1 53.2 53.3 53.3 53.4 53.4 53.5 53.6 53.6 53.7 53.8 53.8 53.8 53.9 54 54.1 54.1 54.1 54.3 54.3 54.4 54.4 54.4 54.5 54.6 54.6 54.7 54.7 54.8 54.8 54.9 54.9 55 55 55.1 55.2 
112 99.6 98.2 97.6 97.5 97.6 97.9 98.3 98.7 99.3 99.9 100.7 101.3 102.2 103 103.9 104.8 105.7 106.6 107.7 108.6 109.7 110.8 111.9 113 114.1 115.3 116.5 117.6 118.9 120.1 121.3 122.5 123.8 125.1 126.4 127.6 129 130.2 131.6 132.8 134.3 135.5 136.9 138.2 139.6 140.9 142.3 143.6 145 146.4 147.8 149.1 150.5 151.9 153.3 154.6 156 157.4 158.9 160.2 161.6 163 164.5 165.8 167.3 168.5 170 171.4 172.9 174.3 175.7 177.1 178.6 180 181.4 182.8 184.2 185.6 187.1 188.4 189.9 191.3 192.7 194.1 195.6 197 198.4 199.8 201.3 202.6 204.1 205.5 207 208.3 209.8 211.2 212.7 214.1 215.5 216.9 218.4 219.8 221.2 222.6 224.1 225.5 227 228.3 229.8 231.2 232.7 234 
112 44.4 44.1 44 44 44.1 44.1 44.3 44.4 44.6 44.7 44.8 45 45.2 45.4 45.5 45.8 46 46.2 46.3 46.5 46.7 46.8 47 47.1 47.4 47.5 47.7 47.8 47.9 48.1 48.3 48.4 48.5 48.6 48.8 48.9 49 49.2 49.3 49.4 49.4 49.6 49.7 49.8 49.9 50 50.1 50.2 50.3 50.3 50.4 50.5 50.7 50.7 50.8 50.9 51 51.1 51.1 51.2 51.3 51.4 51.4 51.5 51.6 51.7 51.8 51.8 51.9 52 52 52.1 52.1 52.2 52.3 52.3 52.4 52.5 52.5 52.6 52.7 52.7 52.8 52.9 52.9 52.9 53.1 53.1 53.1 53.3 53.3 53.3 53.4 53.5 53.5 53.6 53.6 53.7 53.8 53.8 53.8 53.9 54 54.1 54.1 54.1 54.2 54.3 54.3 54.4 54.4 54.5 
108 100.5 98.4 97.8 97.5 97.5 97.7 98 98.4 98.8 99.4 100 100.7 101.4 102.1 102.9 103.8 104.6 105.4 106.3 107.3 108.3 109.2 110.2 111.2 112.3 113.3 114.4 115.6 116.7 117.7 118.9 120.1 121.3 122.4 123.6 124.8 126 127.2 128.4 129.7 131 132.1 133.4 134.7 136 137.2 138.5 139.8 141.1 142.3 143.6 144.9 146.3 147.5 148.8 150.1 151.5 152.7 154.1 155.4 156.7 158 159.3 160.7 162 163.3 164.6 166 167.4 168.6 169.9 171.2 172.6 173.9 175.3 176.7 178.1 179.3 180.7 182.1 183.5 184.7 186.1 187.5 188.8 190.1 191.5 192.8 194.2 195.5 196.8 198.2 199.6 200.9 202.2 203.6 205 206.3 207.6 209 210.4 211.7 213 214.4 215.8 217.1 218.5 219.8 
108 44.3 43.9 43.8 43.8 43.8 43.8 44 44.1 44.2 44.3 44.5 44.6 44.8 44.9 45.1 45.2 45.5 45.7 45.8 46 46.1 46.3 46.5 46.7 46.8 47 47.1 47.2 47.4 47.6 47.7 47.8 48 48.1 48.3 48.4 48.5 48.6 48.7 48.9 48.9 49.1 49.2 49.3 49.4 49.5 49.6 49.7 49.8 49.9 50 50.1 50.1 50.2 50.3 50.4 50.4 50.6 50.6 50.7 50.8 50.8 51 51 51.1 51.1 51.2 51.3 51.3 51.5 51.5 51.6 51.7 51.8 51.8 51.9 51.9 52 52 52.1 52.1 52.2 52.3 52.3 52.4 52.5 52.5 52.6 52.7 52.7 52.8 52.8 52.9 52.9 53.1 53.1 53.1 53.1 53.3 53.3 53.3 53.4 53.5 53.5 53.6 53.6 53.6 53.8 
103 99.5 98.1 97.7 97.4 97.5 97.7 97.9 98.2 98.7 99.2 99.7 100.3 101 101.7 102.5 103.2 104 104.8 105.6 106.5 107.3 108.2 109.2 110.1 111.1 112.1 113 114.1 115.1 116.1 117.2 118.3 119.3 120.5 121.6 122.7 123.8 124.9 126.1 127.2 128.4 129.6 130.7 131.9 133.1 134.3 135.5 136.7 137.9 139.1 140.3 141.5 142.7 143.9 145.2 146.4 147.6 148.9 150.1 151.3 152.6 153.8 155 156.3 157.5 158.8 160 161.3 162.6 163.8 165 166.3 167.5 168.8 170.1 171.3 172.6 173.8 175.1 176.3 177.6 178.9 180.2 181.5 182.7 184 185.3 186.6 187.9 189.1 190.4 191.7 193 194.2 195.5 196.7 198 199.3 200.6 201.8 203.1 204.4 205.7 
103 43.9 43.6 43.5 43.5 43.5 43.6 43.6 43.8 43.9 44 44.2 44.3 44.3 44.6 44.7 44.9 45 45.1 45.4 45.5 45.7 45.9 46 46.2 46.4 46.4 46.7 46.8 46.9 47.1 47.2 47.3 47.5 47.6 47.8 47.9 48 48.1 48.2 48.4 48.4 48.5 48.7 48.8 48.9 49 49.1 49.2 49.2 49.3 49.4 49.5 49.6 49.7 49.7 49.9 50 50 50.1 50.2 50.2 50.3 50.5 50.5 50.6 50.6 50.7 50.8 50.8 50.9 51 51.1 51.2 51.2 51.3 51.4 51.4 51.5 51.5 51.7 51.7 51.8 51.8 51.8 51.9 52 52 52.1 52.1 52.2 52.3 52.2 52.2 52.4 52.5 52.6 52.6 52.6 52.7 52.8 52.8 52.9 52.9 
98 100.5 98.6 97.9 97.7 97.6 97.7 97.9 98.1 98.5 98.9 99.4 99.9 100.4 101 101.8 102.4 103.1 103.8 104.6 105.3 106.2 106.9 107.8 108.7 109.5 110.4 111.3 112.2 113.2 114.1 115.1 116.1 117.1 118.1 119.1 120.1 121.1 122.2 123.3 124.3 125.4 126.4 127.6 128.6 129.7 130.8 132 133.1 134.2 135.3 136.5 137.6 138.7 139.8 141 142.1 143.2 144.4 145.6 146.7 147.8 149 150.2 151.4 152.5 153.7 154.9 156 157.2 158.3 159.6 160.7 161.9 163.1 164.3 165.5 166.6 167.8 169 170.2 171.4 172.5 173.8 175 176.1 177.3 178.5 179.7 180.9 182 183.3 184.5 185.7 186.9 188.1 189.3 190.5 191.7 
98 43.7 43.3 43.2 43.2 43.2 43.2 43.3 43.4 43.5 43.6 43.7 43.8 44 44.1 44.2 44.4 44.5 44.7 44.9 45 45.1 45.3 45.5 45.6 45.8 45.8 46.1 46.2 46.3 46.5 46.6 46.7 46.9 47 47.1 47.3 47.4 47.5 47.6 47.7 47.8 48 48.1 48.2 48.3 48.4 48.5 48.5 48.6 48.8 48.8 48.9 49 49.1 49.2 49.3 49.4 49.4 49.5 49.6 49.7 49.7 49.9 49.8 50 50 50.1 50.2 50.3 50.3 50.4 50.5 50.5 50.5 50.7 50.7 50.8 50.8 51 51 51 51.1 51.2 51.2 51.3 51.3 51.4 51.5 51.5 51.7 51.7 51.7 51.8 51.8 51.9 51.9 52 52 
92 100.1 98.6 97.9 97.7 97.6 97.7 97.7 97.9 98.3 98.6 99.1 99.5 100 100.5 101.1 101.6 102.3 103 103.7 104.4 105.1 105.8 106.6 107.3 108.1 108.9 109.8 110.6 111.5 112.3 113.2 114.1 115.1 115.9 116.9 117.8 118.8 119.7 120.7 121.6 122.7 123.6 124.6 125.6 126.7 127.6 128.7 129.7 130.8 131.8 132.9 133.9 134.9 135.9 137.1 138.1 139.2 140.2 141.3 142.4 143.5 144.5 145.6 146.7 147.8 148.8 150 151.1 152.2 153.2 154.4 155.4 156.6 157.6 158.8 159.8 161 162 163.2 164.3 165.4 166.5 167.6 168.7 169.9 170.9 172.1 173.1 174.3 175.4 176.6 177.6 
92 43.2 42.9 42.8 42.8 42.8 42.8 42.9 43 43.1 43.2 43.2 43.4 43.5 43.7 43.8 44 44 44.1 44.2 44.4 44.6 44.7 44.9 45 45.2 45.3 45.5 45.6 45.7 45.9 46 46.1 46.2 46.4 46.5 46.6 46.8 46.9 47 47.1 47.2 47.3 47.4 47.5 47.6 47.8 47.8 47.9 48 48.1 48.2 48.2 48.4 48.5 48.5 48.6 48.8 48.8 48.9 48.9 49 49.1 49.2 49.2 49.3 49.5 49.5 49.5 49.6 49.7 49.7 49.8 49.9 50 50 50.1 50.1 50.2 50.3 50.3 50.4 50.5 50.6 50.6 50.6 50.7 50.8 50.9 50.9 50.9 50.9 51.1 
86 104.1 99.6 98.5 98 97.7 97.7 97.7 97.8 98 98.2 98.5 98.9 99.3 99.7 100.2 100.7 101.2 101.8 102.4 102.9 103.6 104.3 105 105.6 106.3 107.1 107.8 108.5 109.3 110 110.9 111.6 112.5 113.3 114.2 114.9 115.8 116.7 117.6 118.4 119.3 120.3 121.2 122 122.9 123.9 124.8 125.7 126.7 127.7 128.7 129.5 130.5 131.5 132.5 133.4 134.4 135.4 136.4 137.3 138.3 139.4 140.4 141.3 142.4 143.4 144.4 145.4 146.4 147.4 148.4 149.4 150.4 151.5 152.5 153.5 154.5 155.6 156.6 157.6 158.6 159.7 160.8 161.7 162.8 163.8 
86 43.4 42.7 42.4 42.4 42.4 42.4 42.4 42.5 42.5 42.7 42.8 42.8 43 43.1 43.2 43.3 43.4 43.5 43.7 43.8 43.9 44.1 44.1 44.3 44.5 44.5 44.7 44.9 45 45.2 45.2 45.4 45.4 45.6 45.7 45.9 46 46.1 46.2 46.3 46.5 46.5 46.6 46.8 46.9 47 47.1 47.2 47.2 47.3 47.4 47.6 47.6 47.7 47.8 47.9 48 48.1 48.2 48.2 48.3 48.4 48.5 48.5 48.6 48.7 48.7 48.7 48.9 49 49.1 49.1 49.2 49.3 49.3 49.4 49.5 49.5 49.6 49.6 49.7 49.7 49.8 49.9 49.9 50 
78 100.8 99 98.3 98 97.7 97.6 97.6 97.7 97.9 98.1 98.4 98.7 99 99.4 99.8 100.2 100.7 101.2 101.7 102.2 102.8 103.4 104 104.6 105.3 105.9 106.6 107.2 107.9 108.6 109.3 110 110.8 111.5 112.3 113 113.8 114.6 115.3 116.1 117 117.8 118.6 119.4 120.2 121.1 122 122.8 123.7 124.5 125.4 126.2 127.1 128 128.9 129.8 130.7 131.6 132.5 133.4 134.3 135.2 136.1 137.1 138 138.9 139.8 140.7 141.7 142.6 143.6 144.5 145.4 146.4 147.3 148.3 149.2 150.2 
78 42.5 42.1 41.9 41.9 41.9 41.9 41.9 42 42.1 42.2 42.2 42.3 42.4 42.5 42.7 42.8 42.9 43 43.1 43.3 43.4 43.5 43.6 43.7 43.8 43.9 44.1 44.2 44.3 44.5 44.6 44.7 44.8 44.9 45 45.2 45.3 45.4 45.6 45.7 45.7 45.8 45.9 46.1 46.2 46.3 46.3 46.5 46.5 46.6 46.7 46.9 46.9 47 47.1 47.2 47.3 47.3 47.4 47.5 47.6 47.7 47.8 47.8 47.9 48 48.1 48.1 48.2 48.3 48.3 48.4 48.5 48.5 48.6 48.6 48.7 48.7 
