27 1.35 1.375 1.4 1.425 1.45 1.475 1.5 1.525 1.55 1.575 1.6 1.625 1.65 1.675 1.7 1.725 1.75 1.775 1.8 1.825 1.85 1.875 1.9 1.925 1.95 1.975 2 
135 128.4 129.6 131.1 132.6 134.3 136 137.9 139.8 141.8 143.9 146 148.1 150.2 152.4 154.7 156.9 159.1 161.4 163.7 166.1 168.4 170.7 173.1 175.4 177.8 180.2 182.6 184.9 187.3 189.7 192.1 194.5 196.9 199.3 201.7 204.2 206.5 209 211.4 213.8 216.2 218.7 221.1 223.5 226 228.4 230.8 233.2 235.7 238.2 240.5 243 245.5 247.8 250.3 252.8 255.3 257.7 260.1 262.6 265 267.4 269.9 272.4 274.9 277.3 279.8 282.3 284.7 287.1 289.6 292 294.5 296.9 299.4 301.8 304.3 306.8 309.2 311.7 314.2 316.6 319.1 321.6 324 326.5 328.9 331.4 333.8 336.3 338.8 341.3 343.7 346.2 348.6 351.1 353.6 356.1 358.5 361 363.5 365.9 368.4 370.8 373.3 375.8 378.3 380.7 383.2 385.7 388.2 390.7 393.1 395.6 398.1 400.6 403.1 405.6 408 410.4 412.9 415.4 417.9 420.4 422.9 425.4 427.8 430.3 432.8 435.3 437.7 440.2 442.7 445.1 447.6 
135 40.3 40.7 40.9 41.3 41.5 41.8 42 42.3 42.5 42.7 42.8 43 43.2 43.3 43.5 43.6 43.8 43.9 44 44 44.2 44.3 44.4 44.5 44.5 44.6 44.7 44.8 44.9 45 45.1 45.2 45.2 45.3 45.4 45.4 45.6 45.6 45.7 45.8 45.8 45.9 46 46 46.1 46.2 46.2 46.3 46.4 46.4 46.5 46.6 46.6 46.7 46.8 46.8 46.8 46.9 47 47 47.1 47.1 47.2 47.2 47.2 47.3 47.3 47.3 47.4 47.5 47.5 47.6 47.6 47.7 47.7 47.8 47.8 47.8 47.9 47.9 48 48 48.1 48.1 48.2 48.2 48.3 48.3 48.4 48.4 48.4 48.5 48.5 48.5 48.6 48.6 48.7 48.7 48.8 48.8 48.8 48.9 48.9 49 49 49 49 49.1 49.1 49.2 49.2 49.2 49.3 49.3 49.3 49.3 49.3 49.3 49.4 49.5 49.5 49.5 49.5 49.5 49.5 49.6 49.7 49.7 49.7 49.7 49.8 49.7 49.8 49.9 49.9 
135 122.8 124.4 126.2 128 129.9 131.8 133.9 135.9 138.1 140.2 142.4 144.6 146.9 149.1 151.4 153.7 156 158.3 160.7 163 165.4 167.7 170.1 172.5 174.9 177.4 179.7 182.1 184.5 187 189.3 191.8 194.2 196.7 199.1 201.5 203.9 206.4 208.8 211.2 213.7 216.1 218.6 221 223.5 225.9 228.4 230.8 233.3 235.7 238.2 240.6 243.1 245.5 248 250.5 252.9 255.4 257.8 260.3 262.7 265.2 267.7 270.1 272.6 275.1 277.5 280 282.5 284.9 287.4 289.8 292.3 294.8 297.3 299.7 302.2 304.7 307.1 309.6 312.1 314.5 317 319.5 321.9 324.4 326.9 329.4 331.9 334.3 336.8 339.3 341.7 344.2 346.7 349.1 351.6 354.1 356.6 359 361.5 364 366.5 368.9 371.4 373.9 376.3 378.8 381.3 383.8 386.3 388.7 391.2 393.7 396.2 398.7 401.1 403.6 406.1 408.6 411 413.5 416 418.5 421 423.5 426 428.4 430.9 433.4 435.9 438.4 440.8 443.3 445.8 
135 42.9 43.2 43.4 43.7 43.9 44.1 44.3 44.5 44.6 44.8 45 45.2 45.2 45.5 45.6 45.7 45.8 46 46 46.1 46.2 46.4 46.5 46.5 46.7 46.7 46.8 46.9 47 47 47.2 47.2 47.3 47.3 47.4 47.5 47.6 47.6 47.7 47.8 47.8 48 47.9 48.1 48.1 48.2 48.2 48.3 48.3 48.4 48.4 48.6 48.6 48.7 48.7 48.7 48.9 48.9 49 49 49.1 49.1 49.1 49.2 49.3 49.3 49.4 49.4 49.4 49.5 49.5 49.6 49.6 49.7 49.7 49.8 49.8 49.8 49.9 49.9 49.9 50 50 50 50.2 50.1 50.2 50.2 50.2 50.3 50.3 50.3 50.4 50.4 50.4 50.6 50.6 50.6 50.6 50.7 50.7 50.7 50.7 50.8 50.9 50.8 51 51 51 51 51 51.1 51.2 51.2 51.1 51.1 51.3 51.3 51.3 51.3 51.4 51.4 51.5 51.5 51.5 51.5 51.5 51.6 51.6 51.7 51.6 51.6 51.7 51.8 51.8 
135 119.3 121 122.8 124.8 126.8 128.8 130.9 133 135.2 137.4 139.7 141.9 144.2 146.4 148.8 151.1 153.4 155.8 158.1 160.5 162.9 165.3 167.7 170.1 172.5 174.9 177.3 179.8 182.2 184.7 187 189.5 191.9 194.3 196.7 199.2 201.6 204.1 206.5 209 211.4 213.9 216.3 218.8 221.3 223.7 226.1 228.6 231.1 233.5 236 238.4 240.9 243.4 245.8 248.3 250.8 253.2 255.7 258.1 260.6 263.1 265.5 268 270.5 272.9 275.4 277.9 280.3 282.8 285.3 287.7 290.2 292.7 295.1 297.6 300.1 302.6 305 307.5 309.9 312.4 314.9 317.4 319.8 322.3 324.8 327.2 329.7 332.2 334.7 337.1 339.6 342.1 344.6 347.1 349.5 352 354.5 357 359.5 361.9 364.4 366.9 369.4 371.8 374.3 376.8 379.3 381.8 384.2 386.7 389.2 391.7 394.2 396.6 399.1 401.6 404.1 406.5 409 411.5 414 416.5 419 421.5 423.9 426.4 428.9 431.4 433.9 436.4 438.8 441.3 443.8 
135 44.6 44.9 45.1 45.3 45.5 45.7 45.9 46.1 46.3 46.4 46.5 46.7 46.8 47 47.1 47.2 47.4 47.4 47.6 47.7 47.7 47.8 47.9 47.9 48.1 48.2 48.3 48.3 48.4 48.4 48.6 48.6 48.7 48.8 48.9 48.9 49.1 49.1 49.2 49.2 49.3 49.4 49.5 49.5 49.5 49.7 49.8 49.8 49.8 49.9 49.9 50.1 50.1 50.1 50.2 50.2 50.3 50.4 50.4 50.5 50.5 50.6 50.7 50.7 50.7 50.9 50.9 50.9 51 51 51.1 51.2 51.2 51.2 51.3 51.4 51.4 51.4 51.5 51.6 51.7 51.7 51.7 51.7 51.8 51.9 51.9 52 52 52 52 52.2 52.2 52.2 52.2 52.3 52.4 52.4 52.4 52.4 52.5 52.6 52.6 52.6 52.6 52.7 52.8 52.8 52.8 52.8 52.9 53 53 53 53 53.1 53.1 53.1 53.1 53.3 53.3 53.3 53.3 53.4 53.4 53.4 53.5 53.5 53.5 53.6 53.5 53.6 53.7 53.7 53.7 
135 116.5 118.4 120.3 122.3 124.4 126.5 128.6 130.8 132.9 135.1 137.4 139.7 141.9 144.2 146.6 148.9 151.2 153.6 156 158.4 160.7 163.1 165.5 167.9 170.3 172.7 175.2 177.6 180 182.5 184.8 187.3 189.8 192.2 194.7 197.1 199.6 202 204.4 206.9 209.3 211.8 214.3 216.7 219.2 221.7 224.1 226.5 229 231.4 233.9 236.4 238.8 241.3 243.8 246.2 248.7 251.2 253.6 256.1 258.6 261 263.5 266 268.4 270.9 273.4 275.8 278.3 280.8 283.3 285.7 288.2 290.7 293.2 295.6 298.1 300.6 303.1 305.5 308 310.5 312.9 315.4 317.9 320.4 322.8 325.3 327.8 330.3 332.7 335.2 337.7 340.2 342.7 345.1 347.6 350.1 352.6 355.1 357.5 360 362.5 365 367.5 370 372.5 374.9 377.4 379.9 382.4 384.9 387.3 389.8 392.3 394.8 397.3 399.8 402.2 404.7 407.2 409.7 412.2 414.7 417.2 419.6 422.1 424.6 427.1 429.5 432 434.5 437 439.5 442 
135 45.9 46.2 46.4 46.6 46.7 46.9 47.1 47.2 47.4 47.6 47.7 47.9 48.1 48.2 48.3 48.4 48.6 48.7 48.8 48.9 49.1 49.2 49.2 49.4 49.5 49.6 49.6 49.7 49.9 49.9 50.1 50.1 50.2 50.3 50.3 50.4 50.4 50.6 50.7 50.8 50.9 50.9 50.9 51.1 51.1 51.1 51.3 51.4 51.4 51.5 51.6 51.6 51.7 51.8 51.8 51.9 52 52 52.1 52.2 52.2 52.3 52.3 52.4 52.5 52.5 52.5 52.7 52.7 52.7 52.8 52.9 53 53 53 53.1 53.1 53.2 53.2 53.3 53.4 53.4 53.5 53.5 53.5 53.5 53.7 53.7 53.8 53.7 53.9 53.9 54 54 54 54.1 54.2 54.2 54.2 54.3 54.4 54.4 54.4 54.4 54.4 54.5 54.5 54.6 54.6 54.7 54.7 54.7 54.8 54.8 54.9 54.9 54.9 54.9 55 55.1 55.1 55.1 55.1 55.2 55.2 55.3 55.3 55.3 55.3 55.4 55.4 55.5 55.5 55.5 55.5 
135 114.2 116.1 118.1 120 122.2 124.2 126.3 128.5 130.7 132.9 135.1 137.4 139.7 142 144.4 146.7 149 151.4 153.8 156.2 158.6 160.9 163.4 165.8 168.2 170.6 173 175.5 177.9 180.3 182.8 185.2 187.7 190.1 192.5 195 197.5 199.9 202.4 204.9 207.3 209.7 212.2 214.7 217.1 219.6 222 224.5 227 229.4 231.9 234.4 236.8 239.3 241.8 244.3 246.7 249.2 251.7 254.2 256.6 259.1 261.6 264 266.5 268.9 271.4 273.9 276.4 278.8 281.3 283.8 286.3 288.7 291.2 293.7 296.2 298.7 301.1 303.6 306.1 308.6 311 313.5 316 318.5 321 323.4 325.9 328.4 330.9 333.3 335.8 338.3 340.8 343.3 345.7 348.2 350.7 353.2 355.7 358.1 360.6 363.1 365.6 368.1 370.6 373 375.5 378 380.5 383 385.5 387.9 390.4 392.9 395.4 397.9 400.4 402.8 405.3 407.8 410.3 412.8 415.3 417.8 420.2 422.7 425.2 427.7 430.2 432.7 435.2 437.7 440.1 
135 46.9 47.1 47.3 47.6 47.7 48 48.2 48.4 48.6 48.8 49 49.1 49.3 49.4 49.5 49.7 49.9 50 50.1 50.2 50.3 50.5 50.6 50.7 50.8 50.9 51 51.1 51.2 51.3 51.3 51.5 51.6 51.7 51.8 51.9 51.9 52 52.1 52.1 52.3 52.4 52.4 52.5 52.6 52.7 52.7 52.8 52.9 53 53 53.1 53.2 53.2 53.3 53.3 53.5 53.5 53.5 53.6 53.7 53.7 53.8 53.9 53.9 54.1 54.1 54.2 54.2 54.3 54.4 54.4 54.4 54.5 54.6 54.6 54.7 54.7 54.8 54.9 54.9 54.9 55.1 55.1 55.1 55.2 55.2 55.3 55.4 55.4 55.4 55.5 55.6 55.6 55.7 55.7 55.8 55.8 55.9 55.9 55.9 56 56.1 56.1 56.1 56.2 56.2 56.3 56.3 56.4 56.4 56.4 56.5 56.5 56.6 56.6 56.6 56.7 56.7 56.8 56.8 56.8 56.9 56.9 56.9 57 57 57.1 57.1 57.2 57.2 57.2 57.2 57.2 57.3 
135 112.1 114 116 117.9 120 122.1 124.3 126.4 128.7 130.9 133.2 135.5 137.8 140.1 142.4 144.8 147.1 149.5 151.9 154.3 156.6 159.1 161.5 163.9 166.3 168.7 171.1 173.6 176.1 178.5 181 183.4 185.8 188.3 190.7 193.2 195.6 198.1 200.6 203 205.5 208 210.4 212.9 215.3 217.8 220.3 222.7 225.2 227.7 230.1 232.6 235.1 237.5 240 242.4 244.9 247.4 249.9 252.4 254.8 257.3 259.8 262.3 264.7 267.2 269.7 272.1 274.6 277.1 279.6 282 284.5 287 289.5 292 294.5 296.9 299.4 301.9 304.4 306.8 309.3 311.8 314.2 316.7 319.2 321.7 324.2 326.7 329.2 331.6 334.1 336.6 339.1 341.5 344 346.5 349 351.5 354 356.4 358.9 361.4 363.9 366.4 368.9 371.4 373.8 376.3 378.8 381.3 383.8 386.3 388.8 391.3 393.7 396.2 398.7 401.2 403.7 406.2 408.6 411.1 413.6 416.1 418.6 421.1 423.6 426.1 428.6 431.1 433.5 436 438.5 
135 47.9 48.1 48.3 48.7 48.9 49.1 49.3 49.6 49.7 49.9 50.1 50.2 50.4 50.6 50.8 50.8 51.1 51.2 51.3 51.4 51.6 51.7 51.8 51.9 52.1 52.2 52.3 52.4 52.4 52.6 52.6 52.7 52.9 53 53.1 53.2 53.3 53.3 53.4 53.5 53.6 53.6 53.7 53.8 54 54 54.1 54.2 54.3 54.3 54.4 54.5 54.5 54.7 54.7 54.8 54.9 54.9 55 55 55.2 55.2 55.3 55.3 55.5 55.5 55.5 55.7 55.7 55.8 55.8 55.9 56 56 56.1 56.1 56.2 56.3 56.4 56.4 56.4 56.5 56.6 56.6 56.7 56.8 56.8 56.9 56.9 57 57 57.1 57.2 57.2 57.2 57.3 57.4 57.4 57.4 57.5 57.5 57.6 57.7 57.7 57.8 57.8 57.9 57.9 58 58 58 58.1 58.1 58.1 58.2 58.2 58.3 58.4 58.4 58.4 58.5 58.5 58.6 58.6 58.6 58.7 58.7 58.7 58.7 58.8 58.8 58.9 59 59 59 
135 110.1 112 114 116 118.1 120.2 122.3 124.5 126.7 129 131.2 133.5 135.8 138.1 140.4 142.8 145.2 147.6 150 152.4 154.8 157.2 159.6 162 164.4 166.9 169.3 171.7 174.2 176.6 179.1 181.5 184 186.4 188.9 191.3 193.8 196.2 198.7 201.2 203.6 206.1 208.6 211 213.5 216 218.5 220.9 223.4 225.8 228.3 230.8 233.3 235.7 238.2 240.7 243.1 245.6 248.1 250.6 253 255.5 258 260.5 263 265.4 267.9 270.4 272.9 275.3 277.8 280.3 282.8 285.2 287.7 290.2 292.7 295.1 297.6 300.1 302.6 305 307.5 310 312.5 315 317.5 320 322.5 325 327.4 329.9 332.4 334.9 337.3 339.8 342.3 344.8 347.3 349.7 352.2 354.7 357.2 359.7 362.2 364.7 367.1 369.6 372.1 374.6 377.1 379.5 382 384.5 387 389.5 392 394.5 397 399.4 401.9 404.4 406.9 409.4 411.9 414.4 416.9 419.4 421.8 424.3 426.8 429.3 431.8 434.3 436.8 
135 48.7 49.1 49.3 49.5 49.8 50 50.3 50.5 50.7 50.9 51.1 51.3 51.5 51.7 51.9 52 52.2 52.3 52.4 52.5 52.7 52.8 52.9 53.1 53.2 53.3 53.4 53.6 53.6 53.8 53.9 54 54 54.2 54.3 54.4 54.5 54.6 54.7 54.8 54.9 55 55 55.2 55.2 55.3 55.3 55.5 55.5 55.7 55.7 55.8 55.9 56 56.1 56.1 56.2 56.3 56.3 56.4 56.5 56.6 56.7 56.7 56.7 56.9 57 57 57 57.2 57.2 57.3 57.3 57.5 57.5 57.6 57.6 57.8 57.8 57.9 57.9 58 58.1 58.1 58.2 58.2 58.2 58.3 58.3 58.4 58.5 58.6 58.6 58.6 58.8 58.8 58.9 58.9 58.9 59.1 59.1 59.1 59.2 59.2 59.3 59.3 59.4 59.4 59.5 59.5 59.6 59.7 59.7 59.7 59.8 59.8 59.9 59.9 59.9 60 60.1 60.1 60.1 60.2 60.2 60.3 60.3 60.3 60.4 60.5 60.5 60.5 60.6 60.6 60.6 
135 108.3 110.2 112.2 114.2 116.4 118.5 120.6 122.8 125 127.3 129.5 131.8 134.1 136.4 138.8 141.1 143.5 145.9 148.3 150.7 153.1 155.5 157.9 160.3 162.8 165.2 167.7 170.1 172.5 175 177.4 179.9 182.3 184.8 187.3 189.7 192.1 194.6 197.1 199.5 202 204.5 207 209.4 211.9 214.3 216.8 219.3 221.7 224.2 226.7 229.2 231.6 234.1 236.6 239.1 241.5 244 246.4 248.9 251.4 253.9 256.4 258.9 261.4 263.9 266.3 268.8 271.3 273.7 276.2 278.7 281.2 283.7 286.2 288.6 291.1 293.6 296.1 298.6 301 303.5 306 308.5 310.9 313.4 315.9 318.4 320.9 323.4 325.8 328.3 330.8 333.3 335.8 338.3 340.7 343.2 345.7 348.2 350.7 353.2 355.7 358.1 360.6 363.1 365.6 368.1 370.6 373.1 375.6 378 380.5 383 385.5 388 390.5 393 395.5 397.9 400.4 402.9 405.4 407.9 410.4 412.9 415.4 417.8 420.3 422.8 425.3 427.8 430.3 432.8 435.3 
135 49.6 49.9 50.2 50.5 50.7 50.9 51.2 51.5 51.7 51.9 52.1 52.3 52.5 52.7 52.9 53.1 53.2 53.3 53.5 53.6 53.8 53.9 54.1 54.2 54.3 54.4 54.5 54.7 54.8 54.9 55 55.1 55.3 55.3 55.4 55.6 55.7 55.8 55.8 56 56.1 56.1 56.2 56.4 56.4 56.6 56.6 56.7 56.8 56.9 57 57.1 57.2 57.3 57.4 57.4 57.5 57.6 57.7 57.8 57.9 58 58 58.1 58.2 58.2 58.3 58.4 58.4 58.6 58.6 58.7 58.7 58.8 58.8 59 59 59 59.1 59.2 59.4 59.4 59.4 59.5 59.6 59.7 59.7 59.8 59.8 59.9 60 60.1 60.1 60.2 60.2 60.2 60.4 60.4 60.5 60.5 60.6 60.6 60.6 60.8 60.8 60.8 60.9 60.9 61 61 61.1 61.2 61.2 61.3 61.3 61.4 61.4 61.4 61.5 61.6 61.6 61.7 61.7 61.7 61.8 61.8 61.8 62 62 62 62.1 62.1 62.2 62.2 62.2 
135 106.5 108.4 110.4 112.4 114.5 116.6 118.8 121 123.2 125.4 127.7 130 132.4 134.7 137 139.4 141.7 144.1 146.5 148.9 151.3 153.7 156.2 158.6 161 163.4 165.9 168.3 170.8 173.2 175.7 178.1 180.6 183 185.5 188 190.4 192.9 195.3 197.8 200.3 202.7 205.2 207.7 210.2 212.6 215.1 217.5 220 222.5 225 227.4 229.9 232.4 234.9 237.3 239.8 242.3 244.8 247.3 249.7 252.2 254.7 257.2 259.7 262.1 264.6 267.1 269.6 272.1 274.5 277 279.5 282 284.4 286.9 289.4 291.9 294.4 296.8 299.3 301.8 304.3 306.8 309.3 311.7 314.2 316.7 319.2 321.7 324.2 326.6 329.1 331.6 334.1 336.6 339.1 341.6 344 346.5 349 351.5 354 356.5 359 361.4 363.9 366.4 368.9 371.4 373.9 376.4 378.8 381.3 383.8 386.3 388.8 391.3 393.8 396.3 398.8 401.2 403.7 406.2 408.7 411.2 413.7 416.2 418.7 421.2 423.6 426.1 428.6 431.1 433.6 
135 50.4 50.7 51 51.3 51.6 51.9 52.1 52.3 52.6 52.9 53 53.3 53.4 53.6 53.8 54 54.2 54.3 54.5 54.7 54.8 55 55 55.2 55.4 55.5 55.6 55.8 55.9 56 56.1 56.2 56.3 56.5 56.6 56.6 56.8 56.9 57 57.1 57.2 57.3 57.4 57.5 57.6 57.7 57.8 58 58 58.1 58.2 58.3 58.4 58.5 58.5 58.7 58.8 58.8 58.9 59 59.2 59.2 59.3 59.3 59.4 59.5 59.6 59.7 59.7 59.8 59.9 60 60.1 60.1 60.3 60.3 60.4 60.5 60.5 60.7 60.7 60.8 60.8 60.9 60.9 61.1 61.1 61.2 61.3 61.3 61.4 61.5 61.5 61.6 61.6 61.7 61.8 61.8 62 62 62 62.1 62.1 62.2 62.3 62.4 62.4 62.5 62.5 62.6 62.6 62.6 62.8 62.8 62.8 62.9 62.9 63 63 63.1 63.1 63.2 63.3 63.3 63.4 63.4 63.4 63.5 63.5 63.6 63.7 63.7 63.8 63.8 63.9 
135 104.8 106.7 108.7 110.7 112.8 114.9 117.1 119.3 121.5 123.8 126 128.3 130.6 133 135.3 137.7 140 142.4 144.8 147.2 149.6 152 154.5 156.9 159.3 161.7 164.2 166.6 169.1 171.6 174 176.4 178.9 181.3 183.8 186.3 188.7 191.2 193.7 196.1 198.6 201 203.5 206 208.5 210.9 213.4 215.9 218.4 220.9 223.3 225.8 228.3 230.7 233.2 235.6 238.1 240.6 243.1 245.6 248.1 250.6 253.1 255.6 258.1 260.5 263 265.5 267.9 270.4 272.9 275.4 277.9 280.3 282.8 285.3 287.8 290.3 292.8 295.2 297.7 300.2 302.7 305.2 307.6 310.1 312.6 315.1 317.6 320.1 322.6 325 327.5 330 332.5 335 337.5 340 342.4 344.9 347.4 349.9 352.4 354.9 357.4 359.9 362.3 364.8 367.3 369.8 372.3 374.8 377.3 379.8 382.2 384.7 387.2 389.7 392.2 394.7 397.2 399.7 402.2 404.6 407.1 409.6 412.1 414.6 417.1 419.6 422.1 424.6 427 429.5 432 
135 51.1 51.4 51.7 52.1 52.4 52.6 52.9 53.2 53.4 53.6 53.9 54.1 54.3 54.5 54.7 54.9 55.1 55.3 55.4 55.6 55.7 55.9 56 56.2 56.3 56.5 56.6 56.8 56.9 57 57.1 57.3 57.4 57.6 57.6 57.7 57.9 58 58.1 58.2 58.3 58.5 58.6 58.6 58.7 58.9 59 59.1 59.1 59.3 59.4 59.5 59.6 59.7 59.8 60 60.1 60.1 60.2 60.3 60.4 60.4 60.5 60.6 60.6 60.7 60.8 60.9 61.1 61.1 61.2 61.3 61.4 61.5 61.5 61.6 61.6 61.7 61.8 62 62 62.1 62.1 62.2 62.4 62.4 62.5 62.5 62.6 62.6 62.7 62.9 62.9 63 63 63.1 63.1 63.2 63.4 63.4 63.5 63.5 63.6 63.6 63.6 63.7 63.9 63.9 64 64 64.1 64.1 64.1 64.2 64.3 64.4 64.5 64.5 64.6 64.6 64.6 64.7 64.7 64.9 64.9 64.9 65 65 65.1 65.1 65.1 65.2 65.3 65.4 65.4 
135 103.3 105.2 107.2 109.2 111.3 113.4 115.5 117.7 119.9 122.2 124.4 126.7 129 131.4 133.8 136.2 138.5 140.9 143.3 145.7 148.1 150.5 152.9 155.3 157.8 160.2 162.6 165.1 167.5 170 172.4 174.9 177.4 179.8 182.3 184.7 187.2 189.7 192.1 194.6 197.1 199.5 202 204.5 207 209.4 211.9 214.4 216.8 219.3 221.8 224.3 226.8 229.2 231.7 234.2 236.7 239.1 241.6 244.1 246.6 249.1 251.5 254 256.5 259 261.5 263.9 266.4 268.9 271.4 273.8 276.3 278.8 281.3 283.8 286.3 288.7 291.2 293.7 296.2 298.7 301.2 303.7 306.2 308.6 311.1 313.6 316.1 318.6 321.1 323.6 326 328.5 331 333.5 336 338.5 341 343.4 345.9 348.4 350.9 353.4 355.9 358.4 360.8 363.3 365.8 368.3 370.8 373.3 375.8 378.3 380.8 383.2 385.7 388.2 390.7 393.2 395.7 398.2 400.7 403.2 405.6 408.1 410.6 413.1 415.6 418.1 420.6 423.1 425.6 428.1 430.5 
135 51.7 52.1 52.4 52.7 53 53.3 53.7 53.9 54.2 54.5 54.7 54.9 55.2 55.3 55.6 55.7 56 56.2 56.3 56.5 56.7 56.8 57 57.2 57.3 57.4 57.6 57.7 57.9 58 58.2 58.3 58.4 58.6 58.7 58.8 58.9 59 59.2 59.3 59.4 59.5 59.7 59.7 59.8 60 60.1 60.2 60.4 60.4 60.5 60.6 60.7 60.9 61 61 61.1 61.3 61.3 61.4 61.5 61.6 61.8 61.8 61.9 62 62 62.2 62.3 62.4 62.4 62.6 62.6 62.8 62.8 62.9 63 63.1 63.2 63.3 63.3 63.4 63.5 63.5 63.6 63.8 63.8 63.9 64 64 64.1 64.1 64.3 64.4 64.4 64.5 64.6 64.6 64.6 64.8 64.9 64.9 65 65.1 65.1 65.1 65.3 65.3 65.4 65.5 65.5 65.6 65.6 65.7 65.7 65.9 65.9 66 66 66.1 66.1 66.2 66.2 66.3 66.4 66.4 66.5 66.5 66.6 66.6 66.7 66.7 66.8 66.8 67 
135 101.7 103.6 105.5 107.6 109.6 111.8 114 116.1 118.3 120.6 122.9 125.1 127.4 129.8 132.1 134.5 136.9 139.3 141.6 144 146.4 148.9 151.3 153.7 156.1 158.6 161 163.5 165.9 168.4 170.8 173.3 175.7 178.2 180.6 183.1 185.6 188 190.5 193 195.5 197.9 200.4 202.9 205.3 207.8 210.3 212.8 215.2 217.7 220.2 222.6 225.1 227.6 230.1 232.6 235.1 237.5 240 242.5 245 247.5 249.9 252.4 254.9 257.4 259.9 262.3 264.8 267.3 269.8 272.3 274.7 277.2 279.7 282.2 284.7 287.2 289.7 292.1 294.6 297.1 299.6 302.1 304.6 307.1 309.5 312 314.5 317 319.5 321.9 324.4 326.9 329.4 331.9 334.4 336.9 339.4 341.9 344.3 346.8 349.3 351.8 354.3 356.8 359.3 361.7 364.2 366.7 369.2 371.7 374.2 376.7 379.2 381.7 384.2 386.7 389.2 391.7 394.2 396.6 399.1 401.6 404.1 406.6 409.1 411.6 414.1 416.6 419.1 421.5 424 426.5 429 
135 52.3 52.7 53.1 53.4 53.8 54 54.3 54.6 54.9 55.2 55.4 55.7 56 56.2 56.4 56.5 56.7 56.9 57.2 57.4 57.6 57.7 57.9 58 58.2 58.3 58.5 58.7 58.8 59 59.1 59.3 59.4 59.5 59.7 59.8 59.9 60.1 60.2 60.3 60.4 60.6 60.7 60.8 61 61.1 61.2 61.3 61.4 61.5 61.6 61.8 61.9 62 62.1 62.1 62.2 62.4 62.5 62.6 62.7 62.8 62.9 63 63.1 63.2 63.3 63.4 63.5 63.6 63.7 63.7 63.9 64 64.1 64.2 64.2 64.3 64.4 64.5 64.6 64.7 64.8 64.9 64.9 65 65.1 65.2 65.3 65.4 65.4 65.6 65.6 65.7 65.8 65.9 66 66 66.1 66.2 66.3 66.4 66.5 66.5 66.6 66.5 66.6 66.8 66.9 66.9 67 67 67.1 67.1 67.2 67.2 67.3 67.4 67.4 67.5 67.5 67.7 67.8 67.8 67.8 67.9 67.9 68 68 68.1 68.1 68.3 68.4 68.4 68.5 
135 100.2 102.2 104.1 106.1 108.2 110.3 112.4 114.6 116.8 119.1 121.3 123.6 125.9 128.3 130.6 133 135.3 137.7 140.1 142.5 144.9 147.4 149.8 152.2 154.6 157.1 159.5 162 164.4 166.9 169.3 171.8 174.2 176.7 179.2 181.6 184.1 186.5 189 191.5 194 196.4 198.9 201.4 203.9 206.3 208.8 211.3 213.7 216.2 218.7 221.2 223.7 226.1 228.6 231.1 233.6 236.1 238.5 241 243.5 246 248.4 250.9 253.4 255.9 258.4 260.9 263.3 265.8 268.3 270.8 273.3 275.8 278.2 280.7 283.2 285.7 288.2 290.7 293.1 295.6 298.1 300.6 303.1 305.6 308.1 310.5 313 315.5 318 320.5 323 325.5 327.9 330.4 332.9 335.4 337.9 340.4 342.9 345.4 347.8 350.3 352.8 355.3 357.8 360.3 362.8 365.3 367.8 370.3 372.7 375.2 377.7 380.2 382.7 385.2 387.7 390.2 392.7 395.2 397.6 400.1 402.6 405.1 407.6 410.1 412.6 415.1 417.6 420.1 422.6 425.1 427.6 
135 52.9 53.2 53.7 54 54.3 54.6 55 55.3 55.6 55.9 56.2 56.5 56.7 56.9 57.2 57.3 57.6 57.8 58 58.2 58.4 58.6 58.7 58.9 59.1 59.2 59.4 59.6 59.7 59.9 60.1 60.2 60.4 60.5 60.6 60.8 60.9 61.1 61.2 61.3 61.4 61.6 61.7 61.8 61.9 62.1 62.2 62.3 62.5 62.6 62.7 62.8 62.9 63.1 63.2 63.3 63.4 63.4 63.6 63.7 63.8 63.9 64.1 64.2 64.3 64.4 64.5 64.5 64.7 64.8 64.9 65 65.1 65.1 65.3 65.4 65.5 65.6 65.7 65.8 65.9 66 66 66.1 66.2 66.3 66.4 66.5 66.6 66.7 66.8 66.8 66.9 67 67.1 67.2 67.3 67.3 67.4 67.5 67.6 67.6 67.8 67.8 67.9 68 68.1 68.1 68.2 68.3 68.3 68.4 68.5 68.6 68.6 68.7 68.8 68.9 68.9 69 69 69.1 69.2 69.3 69.3 69.4 69.4 69.5 69.6 69.6 69.7 69.7 69.8 69.8 69.9 
135 98.7 100.6 102.5 104.5 106.6 108.7 110.8 113 115.2 117.5 119.7 122 124.3 126.7 129 131.4 133.7 136.1 138.5 140.9 143.3 145.7 148.2 150.6 153 155.5 157.9 160.3 162.8 165.2 167.7 170.1 172.6 175.1 177.5 180 182.5 184.9 187.4 189.9 192.4 194.8 197.3 199.8 202.3 204.7 207.2 209.7 212.1 214.6 217.1 219.6 222.1 224.5 227 229.5 232 234.4 236.9 239.4 241.9 244.4 246.9 249.3 251.8 254.3 256.8 259.3 261.8 264.2 266.7 269.2 271.7 274.2 276.7 279.1 281.6 284.1 286.6 289.1 291.6 294 296.5 299 301.5 304 306.5 309 311.4 313.9 316.4 318.9 321.4 323.9 326.4 328.9 331.4 333.8 336.3 338.8 341.3 343.8 346.3 348.8 351.3 353.7 356.2 358.7 361.2 363.7 366.2 368.7 371.2 373.7 376.2 378.6 381.1 383.6 386.1 388.6 391.1 393.6 396.1 398.6 401.1 403.6 406.1 408.5 411 413.5 416 418.5 421 423.5 426 
135 53.4 53.8 54.2 54.6 54.9 55.3 55.6 55.9 56.3 56.6 56.9 57.1 57.4 57.6 57.9 58.1 58.4 58.6 58.8 59 59.2 59.4 59.5 59.7 59.9 60 60.3 60.5 60.6 60.8 61 61.1 61.2 61.4 61.6 61.7 61.8 62 62.1 62.3 62.4 62.6 62.7 62.8 62.9 63.1 63.2 63.3 63.5 63.6 63.7 63.8 63.9 64.1 64.2 64.4 64.5 64.6 64.7 64.8 64.9 65 65.1 65.3 65.4 65.5 65.6 65.7 65.8 66 66 66.1 66.2 66.4 66.4 66.6 66.7 66.8 66.9 67 67.1 67.2 67.3 67.4 67.5 67.6 67.7 67.7 67.9 68 68 68.1 68.2 68.3 68.4 68.5 68.5 68.7 68.7 68.8 68.9 69 69.1 69.1 69.2 69.4 69.4 69.5 69.6 69.6 69.7 69.8 69.9 69.9 70 70.2 70.2 70.3 70.3 70.4 70.5 70.5 70.6 70.7 70.7 70.8 70.8 71 71.1 71.1 71.1 71.2 71.3 71.3 71.4 
135 97.4 99.2 101.2 103.2 105.2 107.3 109.5 111.6 113.8 116.1 118.3 120.6 122.9 125.3 127.6 129.9 132.3 134.7 137.1 139.5 141.9 144.3 146.7 149.2 151.6 154 156.5 158.9 161.4 163.8 166.3 168.7 171.2 173.6 176.1 178.6 181 183.5 186 188.5 190.9 193.4 195.9 198.3 200.8 203.3 205.8 208.2 210.7 213.2 215.7 218.1 220.6 223.1 225.6 228 230.5 233 235.5 238 240.5 243 245.5 248 250.4 252.9 255.4 257.9 260.4 262.9 265.3 267.8 270.3 272.8 275.3 277.8 280.2 282.7 285.2 287.7 290.2 292.7 295.2 297.6 300.1 302.6 305.1 307.6 310.1 312.6 315 317.5 320 322.5 325 327.5 330 332.5 334.9 337.4 339.9 342.4 344.9 347.4 349.9 352.4 354.9 357.3 359.8 362.3 364.8 367.3 369.8 372.3 374.8 377.3 379.8 382.2 384.7 387.2 389.7 392.2 394.7 397.2 399.7 402.2 404.7 407.2 409.7 412.1 414.6 417.1 419.6 422.1 424.6 
135 53.9 54.3 54.7 55.1 55.5 55.9 56.2 56.5 56.9 57.1 57.5 57.8 58.1 58.3 58.6 58.8 59 59.3 59.5 59.7 59.9 60.1 60.3 60.5 60.8 60.9 61.1 61.3 61.4 61.6 61.8 62 62.1 62.3 62.4 62.6 62.8 62.9 63 63.2 63.4 63.5 63.6 63.8 63.9 64.1 64.2 64.4 64.5 64.6 64.7 64.9 65.1 65.2 65.3 65.5 65.6 65.7 65.8 65.9 66 66.1 66.2 66.3 66.5 66.6 66.7 66.8 66.9 67 67.1 67.2 67.3 67.4 67.5 67.7 67.9 68 68.1 68.1 68.2 68.3 68.5 68.7 68.7 68.8 68.8 68.9 69.1 69.2 69.3 69.4 69.5 69.5 69.6 69.8 69.8 69.9 70.1 70.2 70.2 70.3 70.4 70.5 70.5 70.7 70.7 70.9 71 71 71.1 71.2 71.2 71.3 71.4 71.5 71.5 71.7 71.8 71.8 71.9 71.9 72 72.1 72.2 72.2 72.3 72.4 72.4 72.6 72.6 72.7 72.8 72.8 72.9 
135 96 97.8 99.7 101.7 103.8 105.8 108 110.1 112.3 114.6 116.8 119.1 121.4 123.7 126.1 128.3 130.8 133.2 135.6 138 140.4 142.8 145.2 147.6 150.1 152.5 154.9 157.4 159.8 162.3 164.7 167.2 169.6 172.1 174.6 177 179.5 182 184.4 186.9 189.4 191.9 194.3 196.8 199.3 201.8 204.2 206.7 209.2 211.7 214.1 216.6 219.1 221.6 224.1 226.5 229 231.5 234 236.5 239 241.5 243.9 246.4 248.9 251.4 253.9 256.3 258.8 261.3 263.8 266.3 268.8 271.3 273.7 276.2 278.7 281.2 283.7 286.2 288.6 291.1 293.6 296.1 298.6 301.1 303.6 306 308.5 311 313.5 316 318.5 321 323.5 326 328.4 330.9 333.4 335.9 338.4 340.9 343.4 345.9 348.4 350.9 353.3 355.8 358.3 360.8 363.3 365.8 368.3 370.8 373.3 375.7 378.2 380.7 383.2 385.7 388.2 390.7 393.2 395.7 398.2 400.7 403.1 405.6 408.1 410.6 413.1 415.6 418.1 420.6 423.1 
135 54.2 54.7 55.2 55.6 55.9 56.3 56.7 57.1 57.4 57.7 58.1 58.4 58.7 58.9 59.2 59.6 59.7 59.9 60.2 60.5 60.6 60.9 61 61.3 61.5 61.6 61.9 62.1 62.3 62.4 62.6 62.8 63 63.1 63.3 63.5 63.6 63.8 64 64.1 64.2 64.4 64.6 64.7 64.8 65 65.2 65.3 65.4 65.6 65.8 65.9 66 66.1 66.3 66.5 66.6 66.7 66.8 67 67.1 67.2 67.3 67.4 67.6 67.7 67.8 68 68.1 68.2 68.3 68.4 68.5 68.6 68.8 68.9 69 69.1 69.2 69.3 69.5 69.6 69.7 69.8 69.9 70 70.1 70.3 70.4 70.5 70.6 70.6 70.7 70.8 70.9 71 71.2 71.3 71.3 71.4 71.5 71.6 71.7 71.8 71.9 72 72.1 72.2 72.3 72.4 72.4 72.5 72.6 72.7 72.8 72.9 73 73.1 73.1 73.2 73.3 73.4 73.4 73.5 73.6 73.7 73.8 73.9 73.9 74 74.1 74.2 74.2 74.3 74.4 
135 94.6 96.5 98.4 100.3 102.4 104.5 106.6 108.7 110.9 113.2 115.4 117.7 120 122.3 124.6 126.9 129.3 131.7 134.1 136.5 138.9 141.3 143.7 146.1 148.6 151 153.5 155.9 158.4 160.8 163.3 165.7 168.2 170.6 173.1 175.6 178 180.5 183 185.5 187.9 190.4 192.9 195.3 197.8 200.3 202.8 205.3 207.7 210.2 212.7 215.2 217.6 220.1 222.6 225.1 227.6 230.1 232.5 235 237.5 240 242.5 245 247.5 249.9 252.4 254.9 257.4 259.9 262.3 264.8 267.3 269.8 272.3 274.8 277.3 279.7 282.2 284.7 287.2 289.7 292.2 294.7 297.1 299.6 302.1 304.6 307.1 309.6 312.1 314.5 317 319.5 322 324.5 327 329.5 332 334.5 336.9 339.4 341.9 344.4 346.9 349.4 351.9 354.4 356.9 359.4 361.8 364.3 366.8 369.3 371.8 374.3 376.8 379.3 381.8 384.3 386.8 389.3 391.8 394.2 396.7 399.2 401.7 404.2 406.7 409.2 411.7 414.2 416.7 419.2 421.6 
135 54.7 55 55.5 56 56.4 56.7 57.1 57.6 57.9 58.2 58.6 58.9 59.2 59.5 59.8 60.2 60.4 60.6 60.9 61.1 61.3 61.6 61.8 62.1 62.2 62.4 62.6 62.8 63 63.2 63.4 63.6 63.8 64 64.1 64.3 64.5 64.6 64.8 64.9 65.2 65.3 65.4 65.7 65.8 65.9 66.1 66.2 66.4 66.5 66.7 66.8 67 67.1 67.3 67.4 67.5 67.7 67.9 68 68.1 68.2 68.4 68.5 68.6 68.8 68.9 69 69.1 69.3 69.5 69.6 69.7 69.8 69.9 70 70.1 70.3 70.4 70.5 70.6 70.7 70.8 70.9 71.1 71.2 71.3 71.4 71.5 71.7 71.7 72 72.1 72.1 72.2 72.3 72.4 72.5 72.6 72.7 72.9 73 73.1 73.1 73.2 73.3 73.4 73.5 73.6 73.7 73.8 73.9 74 74.1 74.2 74.2 74.3 74.4 74.5 74.6 74.7 74.7 74.8 75 75 75.1 75.2 75.2 75.3 75.4 75.5 75.6 75.6 75.7 75.9 
135 93.3 95.1 97 98.9 100.9 103 105.1 107.3 109.5 111.7 113.9 116.2 118.5 120.8 123.1 125.5 127.8 130.2 132.6 135 137.4 139.8 142.2 144.6 147.1 149.5 152 154.4 156.8 159.3 161.8 164.2 166.7 169.1 171.6 174.1 176.5 179 181.5 183.9 186.4 188.9 191.4 193.8 196.3 198.8 201.3 203.7 206.2 208.7 211.2 213.7 216.1 218.6 221.1 223.6 226.1 228.5 231 233.5 236 238.5 241 243.4 245.9 248.4 250.9 253.4 255.9 258.3 260.8 263.3 265.8 268.3 270.8 273.3 275.8 278.3 280.8 283.3 285.8 288.3 290.7 293.2 295.7 298.2 300.7 303.1 305.6 308.1 310.6 313.1 315.6 318.1 320.5 323 325.5 328 330.5 333 335.5 338 340.5 342.9 345.4 347.9 350.4 352.9 355.4 357.9 360.4 362.9 365.4 367.9 370.3 372.8 375.3 377.8 380.3 382.8 385.3 387.8 390.3 392.8 395.3 397.7 400.2 402.7 405.2 407.7 410.2 412.7 415.2 417.7 420.2 
135 54.9 55.4 55.8 56.4 56.8 57.2 57.6 58 58.4 58.7 59.1 59.4 59.8 60.1 60.4 60.7 61 61.2 61.5 61.7 62 62.2 62.5 62.7 62.9 63.2 63.3 63.6 63.8 63.9 64.1 64.3 64.5 64.8 64.9 65.1 65.3 65.4 65.6 65.8 66 66.1 66.3 66.5 66.6 66.8 66.9 67.2 67.3 67.4 67.6 67.7 68 68.1 68.2 68.3 68.5 68.7 68.8 69 69.1 69.2 69.4 69.6 69.7 69.8 69.9 70 70.2 70.5 70.6 70.7 70.8 70.9 71 71.1 71.2 71.3 71.4 71.5 71.6 71.7 72 72.2 72.2 72.3 72.4 72.6 72.7 72.9 73 73.1 73.2 73.3 73.4 73.5 73.6 73.7 73.9 74 74.1 74.2 74.3 74.4 74.5 74.6 74.7 74.8 74.9 75 75.1 75.2 75.3 75.4 75.5 75.6 75.7 75.8 75.9 75.9 76 76.1 76.2 76.3 76.4 76.6 76.6 76.7 76.8 76.8 76.9 77 77.1 77.1 77.3 
135 91.9 93.7 95.6 97.5 99.5 101.6 103.7 105.8 108 110.2 112.4 114.7 117 119.3 121.6 124 126.3 128.7 131.1 133.4 135.9 138.3 140.7 143.1 145.5 148 150.4 152.9 155.3 157.8 160.2 162.7 165.1 167.6 170.1 172.5 175 177.5 179.9 182.4 184.9 187.4 189.8 192.3 194.8 197.3 199.7 202.2 204.7 207.2 209.7 212.1 214.6 217.1 219.6 222.1 224.5 227 229.5 232 234.5 236.9 239.4 241.9 244.4 246.9 249.4 251.9 254.3 256.8 259.3 261.8 264.3 266.8 269.3 271.7 274.2 276.7 279.2 281.7 284.2 286.7 289.2 291.6 294.1 296.6 299.1 301.6 304.1 306.6 309.1 311.5 314 316.5 319 321.5 324 326.5 329 331.5 334 336.4 338.9 341.4 343.9 346.4 348.9 351.4 353.9 356.4 358.9 361.3 363.8 366.3 368.8 371.3 373.8 376.3 378.8 381.3 383.8 386.3 388.7 391.2 393.7 396.2 398.7 401.2 403.7 406.2 408.7 411.2 413.7 416.2 418.7 
135 55.2 55.7 56.2 56.6 57.1 57.5 58 58.4 58.8 59.2 59.6 59.9 60.3 60.6 60.9 61.2 61.5 61.8 62.1 62.4 62.6 62.8 63.1 63.3 63.6 63.8 64.1 64.2 64.5 64.6 64.9 65.1 65.3 65.5 65.7 65.9 66 66.2 66.5 66.6 66.8 66.9 67.2 67.3 67.5 67.6 67.9 68 68.2 68.3 68.5 68.7 68.8 69 69.1 69.3 69.5 69.6 69.8 69.9 70.1 70.3 70.4 70.6 70.7 70.8 71 71.1 71.3 71.4 71.5 71.7 71.8 72 72.1 72.3 72.4 72.5 72.6 72.8 72.9 73 73.1 73.3 73.5 73.5 73.7 73.8 73.9 74 74.1 74.3 74.4 74.5 74.6 74.7 74.8 74.9 75.1 75.2 75.3 75.5 75.6 75.7 75.8 75.9 76 76.1 76.2 76.3 76.4 76.6 76.7 76.8 76.8 76.9 77 77.1 77.2 77.3 77.4 77.5 77.7 77.8 77.9 77.9 78 78.1 78.2 78.2 78.3 78.4 78.5 78.6 78.7 
135 90.7 92.5 94.3 96.3 98.2 100.3 102.4 104.5 106.7 108.9 111.1 113.3 115.6 117.9 120.3 122.6 124.9 127.3 129.7 132.1 134.5 136.9 139.3 141.7 144.2 146.6 149 151.5 153.9 156.4 158.8 161.3 163.7 166.2 168.7 171.2 173.6 176.1 178.5 181 183.5 186 188.4 190.9 193.4 195.9 198.3 200.8 203.3 205.8 208.3 210.7 213.2 215.7 218.2 220.7 223.2 225.6 228.1 230.6 233.1 235.6 238.1 240.5 243 245.5 248 250.5 253 255.5 257.9 260.4 262.9 265.4 267.9 270.4 272.9 275.3 277.8 280.3 282.8 285.3 287.8 290.3 292.8 295.2 297.7 300.2 302.7 305.2 307.7 310.2 312.7 315.2 317.7 320.1 322.6 325.1 327.6 330.1 332.6 335.1 337.6 340 342.5 345 347.5 350 352.5 355 357.5 360 362.5 365 367.5 369.9 372.4 374.9 377.4 379.9 382.4 384.9 387.4 389.9 392.4 394.9 397.4 399.9 402.3 404.8 407.3 409.8 412.3 414.8 417.3 
135 55.6 56 56.6 57 57.5 58 58.4 58.8 59.2 59.6 60 60.5 60.8 61.1 61.4 61.7 62.1 62.4 62.6 62.9 63.2 63.5 63.7 64 64.2 64.4 64.7 64.9 65.2 65.3 65.6 65.8 66.1 66.2 66.4 66.6 66.8 67 67.3 67.4 67.6 67.7 68 68.2 68.3 68.5 68.7 68.9 69 69.2 69.4 69.6 69.7 69.9 70.1 70.2 70.4 70.6 70.7 70.9 71 71.2 71.3 71.6 71.7 71.8 72 72.1 72.3 72.4 72.6 72.8 72.9 73 73.1 73.3 73.4 73.7 73.8 73.9 74 74.1 74.2 74.4 74.5 74.8 74.9 75 75.1 75.2 75.3 75.4 75.6 75.7 75.8 76 76.1 76.2 76.4 76.5 76.5 76.7 76.8 77 77.1 77.2 77.3 77.4 77.5 77.6 77.7 77.8 77.9 78 78.1 78.3 78.4 78.5 78.6 78.7 78.8 78.9 79 79.1 79.2 79.3 79.3 79.4 79.6 79.7 79.8 79.9 80 80.1 80.1 
135 89.4 91.2 93 94.9 96.8 98.9 100.9 103.1 105.2 107.4 109.6 111.9 114.1 116.4 118.7 121.1 123.4 125.8 128.2 130.6 133 135.4 137.8 140.2 142.6 145.1 147.5 150 152.4 154.9 157.3 159.8 162.2 164.7 167.2 169.6 172.1 174.6 177 179.5 182 184.4 186.9 189.4 191.9 194.4 196.8 199.3 201.8 204.3 206.7 209.2 211.7 214.2 216.7 219.1 221.6 224.1 226.6 229.1 231.6 234.1 236.5 239 241.5 244 246.5 249 251.5 253.9 256.4 258.9 261.4 263.9 266.4 268.8 271.3 273.8 276.3 278.8 281.3 283.8 286.3 288.7 291.2 293.7 296.2 298.7 301.2 303.7 306.2 308.6 311.1 313.6 316.1 318.6 321.1 323.6 326.1 328.6 331.1 333.5 336 338.5 341 343.5 346 348.5 351 353.5 356 358.5 360.9 363.4 365.9 368.4 370.9 373.4 375.9 378.4 380.9 383.4 385.9 388.4 390.8 393.3 395.8 398.3 400.8 403.3 405.8 408.3 410.8 413.3 415.8 
135 55.7 56.2 56.7 57.2 57.8 58.2 58.7 59.1 59.6 60 60.4 60.8 61.2 61.6 61.9 62.2 62.6 62.9 63.1 63.4 63.7 64 64.3 64.6 64.9 65 65.3 65.5 65.8 66 66.2 66.4 66.7 66.9 67.1 67.3 67.5 67.7 68 68.1 68.3 68.6 68.7 68.9 69.1 69.2 69.5 69.7 69.8 70 70.3 70.4 70.6 70.7 70.9 71.2 71.3 71.5 71.6 71.8 71.9 72.1 72.3 72.5 72.6 72.8 72.9 73.1 73.2 73.4 73.6 73.7 73.9 74 74.1 74.4 74.5 74.6 74.8 74.9 75.1 75.2 75.3 75.5 75.7 75.8 75.9 76.1 76.2 76.3 76.5 76.7 76.8 76.9 77 77.2 77.3 77.4 77.5 77.6 77.8 78 78.1 78.2 78.3 78.4 78.5 78.7 78.8 78.9 79 79.1 79.3 79.4 79.5 79.6 79.7 79.8 79.9 80 80.2 80.2 80.3 80.4 80.6 80.7 80.8 80.9 81 81.1 81.2 81.3 81.4 81.5 81.6 
135 88.3 90 91.8 93.6 95.6 97.6 99.6 101.7 103.9 106.1 108.3 110.5 112.8 115.1 117.4 119.7 122.1 124.4 126.8 129.2 131.6 134 136.4 138.8 141.3 143.7 146.1 148.6 151 153.5 155.9 158.4 160.8 163.3 165.7 168.2 170.7 173.1 175.6 178.1 180.6 183.1 185.5 188 190.5 192.9 195.4 197.9 200.4 202.9 205.4 207.9 210.3 212.8 215.3 217.8 220.3 222.7 225.2 227.7 230.2 232.7 235.1 237.6 240.1 242.6 245.1 247.6 250.1 252.5 255 257.5 260 262.5 265 267.5 269.9 272.4 274.9 277.4 279.9 282.4 284.9 287.4 289.9 292.3 294.8 297.3 299.8 302.3 304.8 307.3 309.8 312.2 314.7 317.2 319.7 322.2 324.7 327.2 329.7 332.2 334.7 337.2 339.6 342.1 344.6 347.1 349.6 352.1 354.6 357.1 359.6 362.1 364.6 367 369.5 372 374.5 377 379.5 382 384.5 387 389.5 392 394.5 397 399.5 401.9 404.4 406.9 409.4 411.9 414.4 
135 55.9 56.4 57 57.5 57.9 58.5 59 59.5 59.9 60.3 60.8 61.2 61.6 61.9 62.3 62.7 63 63.4 63.7 64 64.3 64.6 64.9 65.2 65.3 65.6 65.9 66.2 66.4 66.7 66.9 67.1 67.4 67.6 67.9 68.1 68.2 68.5 68.7 68.9 69.1 69.3 69.6 69.7 69.9 70.2 70.3 70.5 70.6 70.8 71 71.2 71.5 71.7 71.8 71.9 72.1 72.4 72.5 72.7 72.8 73 73.3 73.4 73.6 73.8 73.9 74 74.2 74.5 74.6 74.8 74.9 75.1 75.2 75.4 75.6 75.7 75.9 76 76.2 76.3 76.5 76.6 76.7 77 77.1 77.2 77.3 77.5 77.6 77.8 77.9 78.1 78.3 78.4 78.5 78.6 78.7 78.9 79 79.2 79.3 79.4 79.6 79.7 79.8 79.9 80 80.2 80.3 80.4 80.5 80.7 80.8 81 81 81.2 81.3 81.4 81.5 81.6 81.7 81.8 81.9 82 82.1 82.3 82.4 82.5 82.6 82.7 82.8 82.9 83 
135 87.1 88.8 90.5 92.4 94.3 96.3 98.3 100.4 102.5 104.7 106.9 109.1 111.4 113.7 116 118.3 120.6 123 125.4 127.8 130.2 132.6 135 137.4 139.8 142.3 144.7 147.1 149.6 152 154.5 156.9 159.4 161.9 164.3 166.8 169.3 171.7 174.2 176.7 179.1 181.6 184.1 186.6 189 191.5 194 196.5 199 201.4 203.9 206.4 208.9 211.4 213.8 216.3 218.8 221.3 223.8 226.3 228.7 231.2 233.7 236.2 238.7 241.1 243.6 246.1 248.6 251.1 253.6 256.1 258.6 261.1 263.5 266 268.5 271 273.5 276 278.5 281 283.4 285.9 288.4 290.9 293.4 295.9 298.4 300.9 303.3 305.8 308.3 310.8 313.3 315.8 318.3 320.8 323.3 325.8 328.3 330.7 333.2 335.7 338.2 340.7 343.2 345.7 348.2 350.7 353.2 355.7 358.2 360.6 363.1 365.6 368.1 370.6 373.1 375.6 378.1 380.6 383.1 385.6 388.1 390.5 393 395.5 398 400.5 403 405.5 408 410.5 413 
135 56 56.5 57.1 57.6 58.2 58.7 59.2 59.7 60.2 60.7 61.1 61.6 61.9 62.3 62.7 63.1 63.5 63.8 64.1 64.4 64.7 65 65.3 65.6 66 66.2 66.5 66.8 67 67.3 67.5 67.8 68 68.2 68.4 68.7 68.8 69.1 69.3 69.6 69.8 70 70.2 70.4 70.7 70.9 71 71.2 71.4 71.7 71.8 72 72.3 72.4 72.7 72.8 73 73.2 73.4 73.6 73.8 74 74.1 74.3 74.5 74.8 74.9 75.1 75.2 75.4 75.5 75.7 75.8 76 76.3 76.4 76.6 76.7 76.9 77 77.2 77.4 77.6 77.7 77.9 78 78.1 78.3 78.4 78.6 78.8 79 79.1 79.2 79.3 79.4 79.6 79.8 79.9 80 80.2 80.4 80.5 80.6 80.8 80.9 81 81.1 81.2 81.4 81.5 81.7 81.8 82 82.1 82.2 82.3 82.4 82.5 82.6 82.8 82.9 83 83.1 83.2 83.5 83.6 83.7 83.8 83.9 84 84 84.1 84.2 84.3 
135 85.9 87.6 89.3 91.1 93.1 95 97 99.1 101.3 103.4 105.6 107.8 110.1 112.3 114.6 117 119.3 121.7 124 126.4 128.8 131.2 133.6 136 138.4 140.9 143.3 145.7 148.2 150.6 153.1 155.5 158 160.5 162.9 165.4 167.9 170.3 172.8 175.3 177.7 180.2 182.7 185.1 187.6 190.1 192.6 195.1 197.6 200.1 202.6 205 207.5 210 212.5 214.9 217.4 219.9 222.4 224.9 227.3 229.8 232.3 234.8 237.3 239.8 242.3 244.7 247.2 249.7 252.2 254.7 257.2 259.7 262.2 264.6 267.1 269.6 272.1 274.6 277.1 279.6 282.1 284.6 287 289.5 292 294.5 297 299.5 302 304.5 306.9 309.4 311.9 314.4 316.9 319.4 321.9 324.4 326.9 329.3 331.8 334.3 336.8 339.3 341.8 344.3 346.8 349.3 351.8 354.2 356.7 359.2 361.7 364.2 366.7 369.2 371.7 374.2 376.7 379.2 381.7 384.2 386.7 389.2 391.7 394.1 396.6 399.1 401.6 404.1 406.6 409.1 411.6 
135 56.2 56.7 57.3 57.9 58.3 58.9 59.5 60 60.4 60.9 61.4 61.9 62.3 62.8 63.1 63.4 63.8 64.1 64.6 64.9 65.2 65.5 65.8 66.1 66.4 66.7 67 67.3 67.5 67.9 68 68.4 68.6 68.8 69.1 69.3 69.5 69.8 70 70.2 70.5 70.7 70.9 71.2 71.5 71.7 71.8 72 72.2 72.4 72.6 72.9 73 73.3 73.4 73.7 73.9 74 74.2 74.4 74.7 74.9 75 75.2 75.3 75.5 75.7 76 76.2 76.3 76.5 76.6 76.8 77 77.2 77.4 77.6 77.7 77.9 78 78.2 78.3 78.5 78.7 78.9 79.1 79.2 79.3 79.5 79.6 79.8 80 80.2 80.4 80.5 80.7 80.8 80.9 81 81.2 81.3 81.6 81.7 81.9 82 82.1 82.3 82.4 82.5 82.6 82.7 83 83.2 83.3 83.4 83.5 83.6 83.8 83.9 84 84.1 84.2 84.3 84.4 84.5 84.6 84.8 85 85.1 85.3 85.4 85.5 85.6 85.7 85.8 
135 84.8 86.4 88.1 89.9 91.8 93.7 95.7 97.8 99.9 102 104.2 106.4 108.7 110.9 113.2 115.5 117.9 120.2 122.6 125 127.3 129.7 132.2 134.6 137 139.4 141.9 144.3 146.7 149.2 151.6 154.1 156.5 159 161.5 163.9 166.4 168.9 171.3 173.8 176.3 178.8 181.2 183.7 186.2 188.7 191.1 193.6 196.1 198.6 201.1 203.5 206 208.5 211 213.5 216 218.5 220.9 223.4 225.9 228.4 230.9 233.4 235.8 238.3 240.8 243.3 245.8 248.3 250.8 253.2 255.7 258.2 260.7 263.2 265.7 268.2 270.6 273.1 275.6 278.1 280.6 283.1 285.6 288.1 290.6 293 295.5 298 300.5 303 305.5 308 310.5 313 315.5 317.9 320.4 322.9 325.4 327.9 330.4 332.9 335.4 337.9 340.4 342.9 345.3 347.8 350.3 352.8 355.3 357.8 360.3 362.8 365.3 367.8 370.3 372.8 375.3 377.8 380.2 382.7 385.2 387.7 390.2 392.7 395.2 397.7 400.2 402.7 405.2 407.7 410.2 
135 56.1 56.7 57.3 57.9 58.4 59 59.6 60.1 60.6 61.2 61.6 62.1 62.5 63 63.4 63.8 64.1 64.6 64.9 65.2 65.7 66 66.2 66.6 66.9 67.2 67.5 67.8 68.1 68.3 68.7 68.8 69.2 69.4 69.6 70 70.2 70.3 70.7 70.9 71.1 71.3 71.6 71.8 72 72.2 72.5 72.8 72.9 73.1 73.3 73.6 73.8 74 74.2 74.4 74.6 74.8 75.1 75.3 75.5 75.6 75.8 76 76.3 76.5 76.7 76.8 77 77.2 77.3 77.6 77.8 78 78.2 78.3 78.5 78.6 78.9 79.1 79.3 79.4 79.6 79.7 79.9 80 80.2 80.5 80.6 80.8 81 81.1 81.3 81.4 81.5 81.7 81.8 82.1 82.3 82.4 82.6 82.7 82.8 83 83.1 83.3 83.4 83.5 83.8 83.9 84.1 84.2 84.3 84.5 84.6 84.7 84.9 85 85.1 85.2 85.3 85.5 85.7 85.9 86 86.1 86.2 86.4 86.5 86.6 86.7 86.8 86.9 87 87.2 
135 83.8 85.3 87 88.8 90.6 92.6 94.5 96.6 98.7 100.8 103 105.2 107.4 109.7 112 114.3 116.6 118.9 121.3 123.7 126.1 128.5 130.9 133.3 135.7 138.1 140.5 143 145.4 147.9 150.3 152.8 155.2 157.7 160.2 162.6 165.1 167.5 170 172.5 174.9 177.4 179.9 182.4 184.9 187.3 189.8 192.3 194.8 197.2 199.7 202.2 204.7 207.2 209.6 212.1 214.6 217.1 219.6 222.1 224.6 227 229.5 232 234.5 237 239.5 242 244.5 247 249.5 252 254.5 257 259.4 261.9 264.4 266.9 269.4 271.9 274.3 276.8 279.3 281.8 284.3 286.8 289.3 291.8 294.3 296.7 299.2 301.7 304.2 306.7 309.2 311.7 314.2 316.7 319.1 321.6 324.1 326.6 329.1 331.6 334.1 336.6 339.1 341.6 344.1 346.5 349 351.5 354 356.5 359 361.5 364 366.5 369 371.5 374 376.4 378.9 381.4 383.9 386.4 388.9 391.4 393.9 396.4 398.9 401.4 403.9 406.4 408.9 
135 56.1 56.8 57.4 58 58.6 59.1 59.8 60.2 60.8 61.4 61.8 62.3 62.8 63.2 63.7 64.1 64.5 65 65.3 65.6 66 66.3 66.7 67 67.3 67.7 68 68.2 68.6 68.8 69.2 69.4 69.7 70 70.2 70.5 70.7 71 71.3 71.5 71.8 72 72.3 72.5 72.7 73 73.3 73.4 73.6 74 74.2 74.4 74.7 74.9 75.1 75.3 75.5 75.7 75.9 76.1 76.3 76.6 76.7 76.9 77.1 77.3 77.5 77.7 77.8 78 78.2 78.4 78.5 78.7 79.2 79.2 79.3 79.5 79.7 80 80.3 80.5 80.6 80.7 80.9 81 81.2 81.4 81.6 81.9 82.1 82.2 82.4 82.5 82.6 82.8 82.9 83.1 83.4 83.6 83.7 83.9 84 84.2 84.3 84.4 84.5 84.7 84.9 85.1 85.3 85.4 85.6 85.7 85.9 86 86.1 86.2 86.3 86.5 86.7 86.9 87 87.1 87.3 87.4 87.6 87.7 87.8 87.9 88 88.2 88.3 88.4 88.5 
135 82.7 84.2 85.9 87.6 89.4 91.3 93.3 95.3 97.4 99.5 101.7 103.9 106.1 108.4 110.6 112.9 115.3 117.6 119.9 122.3 124.7 127 129.5 131.9 134.4 136.8 139.2 141.6 144.1 146.5 149 151.4 153.9 156.3 158.8 161.3 163.7 166.2 168.7 171.1 173.6 176.1 178.6 181 183.5 186 188.5 190.9 193.4 195.9 198.4 200.9 203.3 205.8 208.3 210.8 213.3 215.8 218.2 220.7 223.2 225.7 228.2 230.7 233.1 235.6 238.1 240.6 243.1 245.6 248.1 250.6 253 255.5 258 260.5 263 265.5 268 270.5 272.9 275.4 277.9 280.4 282.9 285.4 287.9 290.4 292.9 295.3 297.8 300.3 302.8 305.3 307.8 310.3 312.8 315.3 317.8 320.2 322.7 325.2 327.7 330.2 332.7 335.2 337.7 340.2 342.7 345.2 347.6 350.1 352.6 355.1 357.6 360.1 362.6 365.1 367.6 370.1 372.6 375.1 377.5 380 382.5 385 387.5 390 392.5 395 397.5 400 402.5 405 407.5 
135 56.3 56.8 57.4 58.1 58.6 59.3 59.9 60.4 60.9 61.5 62 62.5 63 63.4 64 64.4 64.7 65.2 65.7 66 66.3 66.8 67.1 67.4 67.7 67.9 68.4 68.8 68.9 69.3 69.6 69.9 70.1 70.5 70.7 71 71.3 71.5 71.8 72.1 72.3 72.5 72.8 73.1 73.3 73.5 73.8 74.1 74.3 74.6 74.7 75 75.3 75.5 75.7 75.9 76.1 76.4 76.7 76.9 77.1 77.3 77.5 77.6 78 78.2 78.4 78.6 78.8 79 79.1 79.4 79.6 79.8 80 80.2 80.4 80.6 80.8 80.9 81.2 81.4 81.6 81.8 82 82.1 82.3 82.5 82.6 82.9 83.1 83.3 83.4 83.6 83.8 83.9 84.1 84.3 84.4 84.7 84.9 85 85.2 85.3 85.5 85.6 85.8 85.9 86.1 86.3 86.5 86.6 86.8 87 87.1 87.2 87.4 87.5 87.7 87.8 88 88.1 88.3 88.5 88.6 88.7 88.9 89 89.2 89.3 89.4 89.5 89.7 89.8 89.9 
