128.4 40.3
136 41.8
146 42.8
156.9 43.6
168.4 44.2
180.2 44.6
192.1 45.1
204.2 45.4
216.2 45.8
228.4 46.2
240.5 46.5
252.8 46.8
265 47.1
277.3 47.3
289.6 47.5
301.8 47.8
314.2 48
326.5 48.2
338.8 48.4
351.1 48.6
363.5 48.8
375.8 49
388.2 49.2
400.6 49.3
412.9 49.5
425.4 49.6
437.7 49.8
