0.1 0.91
0.127586206897 0.815
0.155172413793 0.76
0.18275862069 0.72
0.210344827586 0.695
0.237931034483 0.675
0.265517241379 0.66
0.293103448276 0.65
0.320689655172 0.64
0.348275862069 0.63
0.375862068966 0.625
0.403448275862 0.62
0.431034482759 0.615
0.458620689655 0.61
0.486206896552 0.605
0.513793103448 0.605
0.541379310345 0.6
0.568965517241 0.6
0.596551724138 0.595
0.624137931034 0.595
0.651724137931 0.59
0.679310344828 0.59
0.706896551724 0.59
0.734482758621 0.585
0.762068965517 0.585
0.789655172414 0.585
0.81724137931 0.585
0.844827586207 0.585
0.872413793103 0.58
0.9 0.58