1.35 0.909091
1.4 0.896861
1.45 0.884956
1.5 0.875657
1.55 0.865052
1.6 0.856164
1.65 0.848896
1.7 0.841043
1.75 0.834028
1.8 0.82713
1.85 0.821693
1.9 0.816327
1.95 0.811688
2 0.807103
2.05 0.803213
2.1 0.8
2.15 0.796178
2.2 0.793651
2.25 0.790514
2.3 0.788022
2.35 0.785546
2.4 0.783085
2.45 0.782473
2.5 0.780031
2.55 0.778816
2.6 0.777001
2.65 0.775795
2.7 0.774593
2.75 0.773395
2.8 0.772798
2.85 0.771605
2.9 0.77101
2.95 0.770416
3 0.769823
